<?xml version="1.0" encoding="UTF-8"?>
<kml xmlns="http://www.opengis.net/kml/2.2">
    <Document>
        <Style id="copterLineStyle">
            <LineStyle>
            <color>ff00ffff</color>
                                <width>2</width>
                                                    </LineStyle>
        </Style>
        <Style id="home">
            <IconStyle>
            <Icon>
            <href>http://app.airdata.com/images/home-icon.png
            </href>
              </Icon>
                <hotSpot x="0"  y="0" xunits="fraction" yunits="fraction"/>
            </IconStyle>
              <BalloonStyle>
              <text>$[Message]</text>
                                </BalloonStyle>
        </Style>
        <Placemark>
  <name>Home</name>
  <styleUrl>#home</styleUrl>
  <ExtendedData>
    <Data name="Message">
      <value><![CDATA[Home point<BR>Altitude:47 feet<BR><BR>&nbsp;]]></value>
    </Data>
  </ExtendedData>
  <Point>
    <altitudeMode>absolute</altitudeMode>
    <coordinates>21.330832,38.580979,14.2726904</coordinates>
  </Point>
</Placemark>
        <Placemark>
            <name>Airdata.com</name>
            <styleUrl>#copterLineStyle</styleUrl>
            <LineString>
                <altitudeMode>absolute</altitudeMode>
                <coordinates>
                    21.330832,38.580979,14.2726904
21.330832,38.580979,14.7726904
21.330832,38.58098,15.5726904
21.330832,38.58098,16.3726904
21.330832,38.58098,17.3726904
21.330832,38.580979,18.6726904
21.330832,38.580979,19.5726904
21.330833,38.58098,21.1726904
21.330833,38.58098,23.0726904
21.330833,38.58098,24.6726904
21.330833,38.580981,26.4726904
21.330834,38.580981,27.9726904
21.330835,38.58098,29.7726904
21.330836,38.58098,31.2726904
21.330836,38.58098,32.3726904
21.330837,38.580979,33.2726904
21.330837,38.580979,34.1726904
21.330836,38.58098,35.1726904
21.330836,38.58098,35.6726904
21.330835,38.58098,36.5726904
21.330835,38.58098,37.4726904
21.330834,38.58098,38.3726904
21.330833,38.58098,39.3726904
21.330832,38.58098,40.2726904
21.330832,38.58098,41.8726904
21.330832,38.58098,43.5726904
21.330832,38.580981,44.6726904
21.330833,38.580981,45.6726904
21.330833,38.580981,46.3726904
21.330833,38.580981,46.8726904
21.330833,38.580982,47.8726904
21.330832,38.580982,48.5726904
21.330832,38.580982,49.3726904
21.330831,38.580982,50.6726904
21.330831,38.580981,52.0726904
21.330831,38.580981,54.2726904
21.330831,38.580981,55.7726904
21.330832,38.580982,58.1726904
21.330833,38.580982,59.3726904
21.330834,38.580982,60.9726904
21.330835,38.580982,62.5726904
21.330836,38.580983,64.5726904
21.330836,38.580983,66.1726904
21.330837,38.580983,67.7726904
21.330837,38.580983,69.7726904
21.330837,38.580983,70.7726904
21.330837,38.580983,72.2726904
21.330836,38.580983,73.0726904
21.330835,38.580983,73.2726904
21.330834,38.580983,73.2726904
21.330833,38.580982,73.2726904
21.330832,38.580982,73.2726904
21.33083,38.580982,73.3726904
21.330829,38.580981,73.2726904
21.330828,38.580981,73.3726904
21.330827,38.580981,73.2726904
21.330826,38.580981,73.2726904
21.330827,38.580981,73.2726904
21.330827,38.580981,73.1726904
21.330828,38.580981,73.1726904
21.330828,38.580981,73.2726904
21.330829,38.580981,73.2726904
21.33083,38.580981,73.2726904
21.330831,38.580981,73.2726904
21.330831,38.580981,73.2726904
21.330831,38.580981,73.2726904
21.330832,38.580981,73.2726904
21.330832,38.580981,73.2726904
21.330832,38.58098,73.2726904
21.330832,38.58098,73.2726904
21.330832,38.58098,73.2726904
21.330832,38.580979,73.3726904
21.330832,38.580979,73.3726904
21.330831,38.580979,73.3726904
21.330831,38.580979,73.3726904
21.330831,38.580979,73.3726904
21.330831,38.58098,73.3726904
21.330831,38.58098,73.3726904
21.330831,38.58098,73.3726904
21.330831,38.58098,73.3726904
21.330831,38.58098,73.3726904
21.330832,38.58098,73.2726904
21.330832,38.580979,73.2726904
21.330833,38.580979,73.2726904
21.330833,38.580979,73.2726904
21.330833,38.58098,73.1726904
21.330833,38.580979,73.1726904
21.330833,38.580979,73.1726904
21.330833,38.580979,73.1726904
21.330833,38.580978,73.1726904
21.330833,38.580978,73.1726904
21.330834,38.580978,73.2726904
21.330834,38.580978,73.2726904
21.330834,38.580978,73.2726904
21.330834,38.580978,73.2726904
21.330834,38.580978,73.1726904
21.330834,38.580978,73.1726904
21.330834,38.580978,73.1726904
21.330834,38.580978,73.1726904
21.330833,38.580978,73.1726904
21.330833,38.580978,73.1726904
21.330833,38.580978,73.0726904
21.330832,38.580978,73.1726904
21.330832,38.580978,73.1726904
21.330832,38.580978,73.1726904
21.330832,38.580978,73.1726904
21.330832,38.580978,73.1726904
21.330832,38.580978,73.1726904
21.330832,38.580978,73.1726904
21.330833,38.580978,73.1726904
21.330833,38.580978,73.0726904
21.330833,38.580978,73.0726904
21.330833,38.580978,73.0726904
21.330833,38.580978,73.0726904
21.330833,38.580978,73.0726904
21.330833,38.580978,73.0726904
21.330833,38.580978,73.0726904
21.330833,38.580977,73.1726904
21.330833,38.580977,73.0726904
21.330833,38.580978,73.0726904
21.330833,38.580978,73.0726904
21.330833,38.580978,73.0726904
21.330833,38.580978,73.0726904
21.330833,38.580978,73.0726904
21.330833,38.580977,73.1726904
21.330833,38.580977,73.1726904
21.330833,38.580977,73.1726904
21.330833,38.580977,73.1726904
21.330833,38.580977,73.1726904
21.330832,38.580977,73.1726904
21.330832,38.580977,73.1726904
21.330832,38.580977,73.1726904
21.330832,38.580977,73.1726904
21.330832,38.580977,73.1726904
21.330832,38.580977,73.1726904
21.330832,38.580977,73.2726904
21.330833,38.580977,73.2726904
21.330833,38.580977,73.2726904
21.330833,38.580977,73.1726904
21.330833,38.580977,73.2726904
21.330833,38.580976,73.2726904
21.330833,38.580976,73.2726904
21.330833,38.580976,73.2726904
21.330833,38.580976,73.2726904
21.330833,38.580976,73.2726904
21.330833,38.580976,73.2726904
21.330833,38.580976,73.2726904
21.330833,38.580975,73.2726904
21.330832,38.580975,73.2726904
21.330832,38.580975,73.2726904
21.330832,38.580975,73.2726904
21.330832,38.580975,73.2726904
21.330832,38.580975,73.2726904
21.330832,38.580975,73.2726904
21.330832,38.580975,73.2726904
21.330832,38.580975,73.2726904
21.330832,38.580975,73.2726904
21.330831,38.580974,73.2726904
21.330831,38.580974,73.2726904
21.330831,38.580974,73.2726904
21.330831,38.580974,73.2726904
21.330831,38.580974,73.2726904
21.330831,38.580974,73.2726904
21.330831,38.580974,73.2726904
21.330831,38.580974,73.2726904
21.330831,38.580974,73.2726904
21.330831,38.580974,73.2726904
21.330831,38.580974,73.2726904
21.330831,38.580974,73.2726904
21.330831,38.580974,73.1726904
21.33083,38.580974,73.2726904
21.33083,38.580974,73.2726904
21.33083,38.580974,73.2726904
21.33083,38.580974,73.3726904
21.33083,38.580974,73.2726904
21.33083,38.580974,73.2726904
21.33083,38.580974,73.2726904
21.33083,38.580974,73.2726904
21.33083,38.580975,73.2726904
21.33083,38.580975,73.2726904
21.33083,38.580975,73.2726904
21.33083,38.580975,73.2726904
21.33083,38.580974,73.2726904
21.33083,38.580974,73.1726904
21.330829,38.580974,73.1726904
21.330829,38.580974,73.1726904
21.330829,38.580974,73.1726904
21.330829,38.580974,73.1726904
21.330829,38.580973,73.1726904
21.330829,38.580973,73.1726904
21.330829,38.580973,73.1726904
21.330829,38.580973,73.2726904
21.330829,38.580973,73.2726904
21.330829,38.580973,73.2726904
21.330829,38.580973,73.2726904
21.330829,38.580972,73.2726904
21.330828,38.580972,73.2726904
21.330828,38.580972,73.2726904
21.330828,38.580972,73.2726904
21.330827,38.580972,73.2726904
21.330827,38.580972,73.2726904
21.330827,38.580971,73.2726904
21.330827,38.580971,73.2726904
21.330827,38.580971,73.2726904
21.330827,38.580971,73.2726904
21.330827,38.580971,73.2726904
21.330827,38.580971,73.2726904
21.330827,38.580971,73.2726904
21.330827,38.580972,73.1726904
21.330827,38.580972,73.1726904
21.330827,38.580972,73.1726904
21.330827,38.580971,73.1726904
21.330827,38.580971,73.1726904
21.330827,38.580971,73.1726904
21.330826,38.580971,73.2726904
21.330827,38.580972,73.2726904
21.330827,38.580972,73.2726904
21.330827,38.580971,73.1726904
21.330827,38.580971,73.1726904
21.330827,38.580971,73.1726904
21.330827,38.580971,73.1726904
21.330828,38.580971,73.0726904
21.330828,38.580971,73.0726904
21.330828,38.580971,73.0726904
21.330828,38.580971,73.0726904
21.330828,38.580971,73.1726904
21.330828,38.580971,73.1726904
21.330828,38.580971,73.1726904
21.330828,38.580971,73.1726904
21.330828,38.580971,73.1726904
21.330828,38.580971,73.1726904
21.330828,38.580971,73.1726904
21.330828,38.580971,73.1726904
21.330828,38.580971,73.1726904
21.330828,38.580971,73.1726904
21.330828,38.580971,73.1726904
21.330828,38.580971,73.1726904
21.330827,38.58097,73.1726904
21.330828,38.58097,73.1726904
21.330828,38.58097,73.1726904
21.330828,38.58097,73.1726904
21.330828,38.58097,73.1726904
21.330828,38.58097,73.1726904
21.330828,38.580971,73.1726904
21.330828,38.580971,73.1726904
21.330829,38.580971,73.1726904
21.330829,38.580971,73.1726904
21.330829,38.580971,73.1726904
21.330829,38.580971,73.2726904
21.330829,38.580971,73.1726904
21.33083,38.58097,73.1726904
21.330834,38.580968,73.1726904
21.330842,38.580965,73.1726904
21.330857,38.58096,73.1726904
21.330869,38.580956,73.1726904
21.330887,38.58095,73.1726904
21.330908,38.580943,73.1726904
21.330926,38.580938,73.1726904
21.33096,38.580928,73.2726904
21.330981,38.580922,73.2726904
21.331012,38.580914,73.3726904
21.331044,38.580905,73.3726904
21.331078,38.580895,73.3726904
21.331113,38.580886,73.4726904
21.331149,38.580876,73.5726904
21.331196,38.580865,73.5726904
21.331235,38.580855,73.6726904
21.331286,38.580844,73.7726904
21.331337,38.580832,73.7726904
21.331369,38.580825,73.8726904
21.331421,38.580813,73.8726904
21.331464,38.580804,73.8726904
21.331514,38.580793,73.8726904
21.331554,38.580784,73.9726904
21.331602,38.580773,74.0726904
21.33164,38.580764,74.0726904
21.331677,38.580756,74.0726904
21.331724,38.580744,74.0726904
21.33176,38.580735,74.0726904
21.331793,38.580727,74.0726904
21.331814,38.580722,74.0726904
21.331837,38.580717,74.0726904
21.331854,38.580715,74.0726904
21.331859,38.580714,74.0726904
21.331866,38.580714,74.1726904
21.331869,38.580715,74.1726904
21.33187,38.580716,74.1726904
21.331872,38.580716,74.2726904
21.331873,38.580716,74.2726904
21.331872,38.580715,74.1726904
21.33187,38.580714,74.1726904
21.331861,38.580714,74.1726904
21.331849,38.580714,74.1726904
21.331834,38.580715,74.1726904
21.33181,38.580717,74.1726904
21.33179,38.580719,74.1726904
21.331773,38.58072,74.0726904
21.331765,38.580721,74.1726904
21.331755,38.580727,74.1726904
21.331748,38.580736,74.2726904
21.331742,38.580745,74.2726904
21.331735,38.580754,74.2726904
21.331723,38.580767,74.3726904
21.33171,38.580783,74.3726904
21.331696,38.5808,74.3726904
21.331684,38.580813,74.3726904
21.331668,38.580833,74.3726904
21.331647,38.580859,74.3726904
21.331634,38.580875,74.3726904
21.33162,38.580892,74.3726904
21.331601,38.580915,74.3726904
21.331586,38.580933,74.4726904
21.331571,38.58095,74.4726904
21.331551,38.580974,74.4726904
21.33153,38.580999,74.4726904
21.331503,38.581031,74.4726904
21.331488,38.581049,74.4726904
21.331461,38.581081,74.4726904
21.33145,38.581094,74.4726904
21.331434,38.581113,74.4726904
21.331418,38.581132,74.4726904
21.331396,38.581157,74.4726904
21.331374,38.581183,74.4726904
21.331352,38.581208,74.3726904
21.331331,38.581234,74.4726904
21.331309,38.581259,74.4726904
21.331288,38.581284,74.5726904
21.331272,38.581302,74.5726904
21.331246,38.581333,74.5726904
21.331225,38.581358,74.5726904
21.331208,38.581376,74.5726904
21.331186,38.581401,74.5726904
21.331165,38.581426,74.5726904
21.331138,38.581457,74.5726904
21.331116,38.581482,74.5726904
21.331095,38.581506,74.5726904
21.331073,38.581531,74.5726904
21.331052,38.581555,74.5726904
21.331025,38.581586,74.5726904
21.331009,38.581605,74.5726904
21.330983,38.581636,74.5726904
21.330961,38.581661,74.5726904
21.33094,38.581686,74.5726904
21.330919,38.581711,74.6726904
21.330898,38.581735,74.6726904
21.330877,38.58176,74.6726904
21.33085,38.581791,74.6726904
21.330829,38.581816,74.6726904
21.330803,38.581847,74.6726904
21.330787,38.581865,74.6726904
21.33076,38.581897,74.7726904
21.330739,38.581922,74.7726904
21.330717,38.581947,74.7726904
21.330695,38.581972,74.7726904
21.330679,38.581991,74.7726904
21.330658,38.582015,74.7726904
21.330636,38.58204,74.8726904
21.330625,38.582053,74.8726904
21.330598,38.582084,74.8726904
21.330583,38.582102,74.8726904
21.330562,38.582127,74.8726904
21.330535,38.582158,74.8726904
21.330519,38.582176,74.8726904
21.330497,38.582201,74.8726904
21.330476,38.582226,74.8726904
21.330461,38.582245,74.8726904
21.330435,38.582275,74.9726904
21.330414,38.5823,74.9726904
21.330393,38.582325,74.9726904
21.330372,38.58235,74.9726904
21.33035,38.582374,74.9726904
21.330324,38.582406,74.9726904
21.330308,38.582424,75.0726904
21.330281,38.582456,75.0726904
21.33026,38.58248,75.0726904
21.330233,38.582511,75.0726904
21.330212,38.582536,75.1726904
21.330191,38.582561,75.1726904
21.330169,38.582586,75.1726904
21.330159,38.582598,75.1726904
21.330132,38.58263,75.1726904
21.330106,38.582661,75.2726904
21.330085,38.582686,75.2726904
21.330064,38.582711,75.2726904
21.330042,38.582735,75.2726904
21.330021,38.58276,75.3726904
21.329999,38.582786,75.2726904
21.329978,38.58281,75.2726904
21.329952,38.582841,75.3726904
21.329936,38.58286,75.3726904
21.329914,38.582885,75.3726904
21.329893,38.58291,75.3726904
21.329871,38.582935,75.3726904
21.329845,38.582966,75.4726904
21.329823,38.582991,75.4726904
21.329796,38.583022,75.4726904
21.32978,38.583041,75.4726904
21.329759,38.583066,75.4726904
21.329732,38.583097,75.4726904
21.329716,38.583116,75.4726904
21.329695,38.58314,75.4726904
21.329674,38.583165,75.4726904
21.329652,38.58319,75.4726904
21.329631,38.583215,75.4726904
21.32961,38.58324,75.4726904
21.329583,38.58327,75.4726904
21.329567,38.583289,75.4726904
21.329541,38.58332,75.4726904
21.329519,38.583345,75.4726904
21.329498,38.58337,75.4726904
21.329471,38.583401,75.4726904
21.329444,38.583432,75.4726904
21.329423,38.583457,75.4726904
21.329407,38.583476,75.4726904
21.32938,38.583507,75.4726904
21.329359,38.583532,75.4726904
21.329332,38.583563,75.4726904
21.329316,38.583581,75.4726904
21.3293,38.5836,75.5726904
21.329279,38.583625,75.5726904
21.329252,38.583656,75.4726904
21.329236,38.583675,75.4726904
21.329214,38.583699,75.4726904
21.329198,38.583718,75.4726904
21.329177,38.583743,75.4726904
21.32915,38.583774,75.4726904
21.329129,38.583798,75.4726904
21.329102,38.583829,75.4726904
21.329081,38.583854,75.4726904
21.329059,38.583879,75.4726904
21.329038,38.583904,75.4726904
21.329011,38.583935,75.4726904
21.328984,38.583966,75.4726904
21.328962,38.583991,75.4726904
21.328936,38.584022,75.4726904
21.328925,38.584034,75.4726904
21.328903,38.584059,75.4726904
21.328877,38.584089,75.3726904
21.328856,38.584114,75.3726904
21.328834,38.584139,75.3726904
21.328813,38.584164,75.3726904
21.328796,38.584182,75.3726904
21.328775,38.584207,75.3726904
21.328754,38.584232,75.3726904
21.328727,38.584263,75.3726904
21.328711,38.584282,75.3726904
21.328689,38.584307,75.3726904
21.328668,38.584331,75.3726904
21.328652,38.58435,75.2726904
21.328625,38.584381,75.2726904
21.328609,38.5844,75.2726904
21.328588,38.584425,75.2726904
21.328566,38.58445,75.2726904
21.328545,38.584475,75.2726904
21.328523,38.5845,75.1726904
21.328507,38.584519,75.1726904
21.328492,38.584537,75.1726904
21.328465,38.584568,75.1726904
21.328449,38.584587,75.1726904
21.328428,38.584611,75.1726904
21.328406,38.584636,75.1726904
21.32839,38.584655,75.1726904
21.328369,38.584679,75.1726904
21.328342,38.58471,75.0726904
21.328326,38.584729,75.1726904
21.3283,38.584759,75.1726904
21.328279,38.584784,75.1726904
21.328258,38.584808,75.1726904
21.328236,38.584833,75.1726904
21.328215,38.584858,75.1726904
21.328193,38.584883,75.1726904
21.328177,38.584902,75.1726904
21.328155,38.584927,75.1726904
21.328133,38.584951,75.1726904
21.328123,38.584964,75.1726904
21.328096,38.584995,75.1726904
21.328074,38.58502,75.1726904
21.328053,38.585044,75.1726904
21.328027,38.585075,75.1726904
21.328011,38.585094,75.1726904
21.327989,38.585119,75.1726904
21.327968,38.585143,75.1726904
21.327941,38.585175,75.1726904
21.327914,38.585206,75.2726904
21.327887,38.585237,75.2726904
21.327866,38.585261,75.2726904
21.32785,38.58528,75.2726904
21.327824,38.585311,75.2726904
21.327803,38.585336,75.3726904
21.327782,38.585361,75.2726904
21.327766,38.58538,75.3726904
21.327756,38.585392,75.3726904
21.327729,38.585423,75.3726904
21.327702,38.585454,75.3726904
21.327681,38.585479,75.4726904
21.32766,38.585503,75.4726904
21.327639,38.585528,75.4726904
21.327617,38.585552,75.5726904
21.327596,38.585577,75.5726904
21.327574,38.585601,75.5726904
21.327559,38.58562,75.5726904
21.327537,38.585645,75.6726904
21.32751,38.585676,75.6726904
21.327494,38.585695,75.7726904
21.327473,38.585719,75.7726904
21.327452,38.585744,75.7726904
21.327436,38.585763,75.7726904
21.327409,38.585794,75.7726904
21.327382,38.585825,75.8726904
21.327361,38.58585,75.8726904
21.327339,38.585875,75.8726904
21.327323,38.585893,75.9726904
21.327296,38.585925,75.9726904
21.32728,38.585944,75.8726904
21.327265,38.585963,75.9726904
21.327238,38.585994,75.9726904
21.327222,38.586013,75.9726904
21.327196,38.586045,75.9726904
21.327175,38.586069,75.9726904
21.327148,38.586101,75.9726904
21.327121,38.586132,75.9726904
21.32711,38.586145,75.9726904
21.327083,38.586176,75.9726904
21.327067,38.586195,75.9726904
21.327051,38.586213,75.9726904
21.327029,38.586238,75.9726904
21.327008,38.586263,75.9726904
21.326997,38.586275,75.9726904
21.326981,38.586294,75.9726904
21.326954,38.586325,76.0726904
21.326943,38.586337,75.9726904
21.326922,38.586362,76.0726904
21.326906,38.58638,76.0726904
21.326891,38.586399,76.0726904
21.326875,38.586417,76.0726904
21.326859,38.586436,76.0726904
21.326848,38.586448,76.0726904
21.326832,38.586467,76.0726904
21.326811,38.586492,76.0726904
21.326795,38.58651,76.0726904
21.326779,38.586528,76.0726904
21.326757,38.586553,76.0726904
21.326742,38.586571,76.0726904
21.326731,38.586584,76.0726904
21.326704,38.586614,76.0726904
21.326688,38.586633,76.0726904
21.326672,38.586652,76.0726904
21.326651,38.586677,76.0726904
21.326635,38.586695,76.0726904
21.326614,38.58672,76.0726904
21.326592,38.586745,76.0726904
21.326566,38.586776,76.0726904
21.326544,38.586801,76.0726904
21.326528,38.58682,76.0726904
21.326507,38.586845,76.0726904
21.32648,38.586876,76.0726904
21.326469,38.586888,76.0726904
21.326442,38.586919,76.0726904
21.326421,38.586944,75.9726904
21.326394,38.586974,75.9726904
21.326378,38.586993,76.0726904
21.326356,38.587017,76.0726904
21.326329,38.587048,75.9726904
21.326297,38.587085,75.9726904
21.32627,38.587116,75.9726904
21.326248,38.587141,75.9726904
21.326222,38.587171,75.9726904
21.3262,38.587196,75.8726904
21.326174,38.587227,75.8726904
21.326152,38.587252,75.8726904
21.326136,38.587271,75.8726904
21.326109,38.587303,75.8726904
21.326098,38.587315,75.8726904
21.32607,38.587346,75.8726904
21.326044,38.587377,75.8726904
21.326028,38.587395,75.8726904
21.326001,38.587426,75.8726904
21.325985,38.587445,75.8726904
21.325969,38.587464,75.8726904
21.325937,38.587501,75.7726904
21.325926,38.587513,75.7726904
21.325905,38.587538,75.7726904
21.325883,38.587563,75.7726904
21.325856,38.587594,75.6726904
21.32584,38.587613,75.6726904
21.325824,38.587632,75.6726904
21.325803,38.587657,75.6726904
21.325776,38.587688,75.6726904
21.32576,38.587706,75.6726904
21.325733,38.587737,75.6726904
21.325722,38.587749,75.6726904
21.325695,38.58778,75.6726904
21.325679,38.587799,75.6726904
21.325658,38.587823,75.5726904
21.325632,38.587854,75.5726904
21.325605,38.587885,75.5726904
21.325589,38.587904,75.5726904
21.325568,38.587929,75.5726904
21.325547,38.587954,75.5726904
21.325525,38.587978,75.5726904
21.325509,38.587997,75.5726904
21.325482,38.588027,75.4726904
21.325455,38.588059,75.4726904
21.32544,38.588077,75.4726904
21.325413,38.588108,75.4726904
21.325398,38.588127,75.4726904
21.325371,38.588157,75.4726904
21.325355,38.588176,75.4726904
21.325344,38.588189,75.3726904
21.325323,38.588213,75.3726904
21.325301,38.588238,75.3726904
21.325285,38.588257,75.3726904
21.325264,38.588281,75.3726904
21.325243,38.588306,75.3726904
21.325232,38.588318,75.3726904
21.325205,38.58835,75.2726904
21.325189,38.588368,75.2726904
21.325168,38.588393,75.2726904
21.325141,38.588425,75.2726904
21.325125,38.588443,75.2726904
21.325098,38.588474,75.2726904
21.325076,38.588499,75.2726904
21.325049,38.58853,75.1726904
21.325027,38.588555,75.1726904
21.325011,38.588573,75.1726904
21.324984,38.588604,75.1726904
21.324963,38.588628,75.1726904
21.324941,38.588653,75.1726904
21.324925,38.588672,75.1726904
21.324903,38.588696,75.1726904
21.324885,38.588718,75.0726904
21.324873,38.588732,75.0726904
21.324859,38.588749,75.0726904
21.324852,38.588759,75.1726904
21.324851,38.588766,75.1726904
21.324852,38.588776,75.1726904
21.324857,38.588783,75.1726904
21.324863,38.58879,75.1726904
21.324875,38.588799,75.1726904
21.324887,38.588807,75.1726904
21.324898,38.588812,75.0726904
21.324902,38.588811,75.0726904
21.324905,38.588809,75.0726904
21.324907,38.5888,75.0726904
21.324904,38.58879,75.0726904
21.324901,38.58878,75.0726904
21.324896,38.588767,75.0726904
21.324892,38.588751,75.0726904
21.324892,38.588738,75.0726904
21.324895,38.588721,75.0726904
21.324898,38.588707,75.0726904
21.324907,38.588683,75.0726904
21.324917,38.588664,74.9726904
21.324927,38.58865,74.9726904
21.324943,38.588633,75.0726904
21.324955,38.588619,75.0726904
21.324974,38.5886,75.0726904
21.324998,38.588575,75.0726904
21.325018,38.588554,75.0726904
21.325033,38.588538,75.0726904
21.325053,38.588516,75.0726904
21.325068,38.5885,75.1726904
21.325089,38.588477,75.1726904
21.325104,38.58846,75.1726904
21.325125,38.588437,75.1726904
21.325157,38.588401,75.1726904
21.325178,38.588377,75.2726904
21.325204,38.588346,75.2726904
21.325225,38.588322,75.2726904
21.325246,38.588297,75.2726904
21.325262,38.588279,75.2726904
21.325283,38.588254,75.2726904
21.325305,38.588229,75.2726904
21.325326,38.588204,75.2726904
21.325353,38.588172,75.3726904
21.325374,38.588147,75.3726904
21.325396,38.588122,75.3726904
21.325417,38.588097,75.4726904
21.325439,38.588072,75.4726904
21.325466,38.588041,75.4726904
21.325487,38.588017,75.4726904
21.325509,38.587992,75.4726904
21.32553,38.587966,75.4726904
21.325551,38.587941,75.4726904
21.325578,38.58791,75.5726904
21.325599,38.587885,75.5726904
21.32562,38.58786,75.5726904
21.325642,38.587836,75.5726904
21.32567,38.587804,75.5726904
21.325691,38.587779,75.5726904
21.325718,38.587748,75.6726904
21.325739,38.587723,75.6726904
21.325755,38.587705,75.6726904
21.325771,38.587686,75.6726904
21.325792,38.587661,75.6726904
21.325819,38.58763,75.6726904
21.325846,38.587599,75.7726904
21.325862,38.58758,75.7726904
21.325878,38.587561,75.7726904
21.325899,38.587537,75.7726904
21.325915,38.587518,75.7726904
21.325937,38.587493,75.7726904
21.325958,38.587469,75.7726904
21.325974,38.58745,75.7726904
21.326002,38.587419,75.7726904
21.326028,38.587388,75.8726904
21.326044,38.58737,75.8726904
21.32606,38.587351,75.8726904
21.326076,38.587332,75.8726904
21.326092,38.587314,75.8726904
21.326114,38.587289,75.8726904
21.326131,38.58727,75.8726904
21.326147,38.587251,75.8726904
21.326169,38.587226,75.8726904
21.326185,38.587207,75.8726904
21.326207,38.587182,75.8726904
21.326228,38.587157,75.8726904
21.326239,38.587144,75.8726904
21.326265,38.587114,75.8726904
21.326281,38.587095,75.8726904
21.326308,38.587064,75.8726904
21.326324,38.587046,75.8726904
21.32634,38.587027,75.8726904
21.326361,38.587003,75.8726904
21.326388,38.586971,75.9726904
21.326405,38.586953,75.9726904
21.326432,38.586922,75.9726904
21.326448,38.586903,75.9726904
21.326469,38.586879,75.9726904
21.326491,38.586854,75.9726904
21.326506,38.586836,76.0726904
21.326528,38.586811,76.0726904
21.326549,38.586786,76.0726904
21.326565,38.586768,76.0726904
21.326593,38.586737,76.1726904
21.326603,38.586724,76.1726904
21.326619,38.586705,76.1726904
21.326641,38.586681,76.1726904
21.326662,38.586656,76.1726904
21.326683,38.586632,76.2726904
21.32671,38.586601,76.2726904
21.326731,38.586577,76.2726904
21.326753,38.586552,76.2726904
21.326769,38.586533,76.2726904
21.326796,38.586502,76.2726904
21.326817,38.586478,76.2726904
21.326844,38.586447,76.2726904
21.326866,38.586422,76.2726904
21.326898,38.586386,76.2726904
21.326914,38.586367,76.2726904
21.326924,38.586355,76.2726904
21.326951,38.586324,76.2726904
21.326978,38.586293,76.2726904
21.326989,38.586281,76.2726904
21.327016,38.58625,76.1726904
21.327032,38.586231,76.1726904
21.327058,38.5862,76.1726904
21.327085,38.586169,76.1726904
21.327107,38.586144,76.1726904
21.327133,38.586113,76.1726904
21.327149,38.586094,76.1726904
21.327177,38.586062,76.1726904
21.327193,38.586043,76.0726904
21.327214,38.586018,76.0726904
21.32724,38.585988,76.0726904
21.327262,38.585964,75.9726904
21.327288,38.585933,75.9726904
21.327298,38.585921,75.9726904
21.327325,38.58589,75.9726904
21.327352,38.585859,75.8726904
21.327368,38.58584,75.8726904
21.327389,38.585815,75.8726904
21.32741,38.58579,75.8726904
21.327437,38.585759,75.8726904
21.327459,38.585734,75.8726904
21.327475,38.585715,75.8726904
21.327496,38.58569,75.8726904
21.327512,38.585671,75.7726904
21.327528,38.585652,75.7726904
21.327544,38.585634,75.7726904
21.327565,38.585609,75.7726904
21.327587,38.585584,75.6726904
21.327608,38.585559,75.6726904
21.327635,38.585528,75.6726904
21.327661,38.585497,75.5726904
21.327672,38.585485,75.5726904
21.327699,38.585453,75.5726904
21.327726,38.585422,75.4726904
21.327747,38.585397,75.4726904
21.327768,38.585372,75.3726904
21.327795,38.585341,75.3726904
21.327822,38.585309,75.2726904
21.327843,38.585285,75.2726904
21.327864,38.58526,75.2726904
21.32788,38.585241,75.2726904
21.327901,38.585216,75.1726904
21.327928,38.585185,75.1726904
21.327938,38.585173,75.1726904
21.327955,38.585154,75.1726904
21.327981,38.585124,75.0726904
21.327992,38.585111,75.0726904
21.328013,38.585086,75.0726904
21.328029,38.585067,75.0726904
21.328045,38.585049,75.0726904
21.328067,38.585025,75.0726904
21.328088,38.585,75.0726904
21.328099,38.584987,74.9726904
21.328126,38.584956,74.9726904
21.328147,38.584931,74.9726904
21.328168,38.584906,74.9726904
21.328184,38.584888,74.9726904
21.328206,38.584863,74.9726904
21.328232,38.584832,74.9726904
21.328259,38.584801,74.9726904
21.328275,38.584782,74.9726904
21.328296,38.584757,74.9726904
21.328312,38.584738,74.9726904
21.328334,38.584714,74.9726904
21.328344,38.584701,74.9726904
21.32836,38.584683,74.8726904
21.328382,38.584658,74.8726904
21.328403,38.584634,74.8726904
21.32843,38.584603,74.8726904
21.328457,38.584572,74.8726904
21.328478,38.584547,74.8726904
21.328494,38.584528,74.9726904
21.328515,38.584503,74.9726904
21.328542,38.584472,74.8726904
21.328569,38.584441,74.9726904
21.328591,38.584416,74.9726904
21.328617,38.584385,74.9726904
21.328639,38.584361,75.0726904
21.32866,38.584336,75.0726904
21.328682,38.584311,75.0726904
21.328693,38.584298,75.0726904
21.328714,38.584274,75.0726904
21.328736,38.584249,75.0726904
21.328757,38.584224,75.0726904
21.328784,38.584193,75.0726904
21.328794,38.58418,75.0726904
21.328811,38.584162,75.0726904
21.328832,38.584137,75.1726904
21.328848,38.584118,75.1726904
21.32887,38.584093,75.1726904
21.328891,38.584068,75.1726904
21.328913,38.584043,75.1726904
21.328935,38.584018,75.1726904
21.328956,38.583994,75.2726904
21.328967,38.583981,75.2726904
21.328988,38.583956,75.2726904
21.329009,38.583932,75.2726904
21.329019,38.58392,75.2726904
21.329046,38.583889,75.2726904
21.329067,38.583865,75.2726904
21.329094,38.583834,75.3726904
21.329115,38.583809,75.3726904
21.329126,38.583797,75.3726904
21.329147,38.583772,75.3726904
21.329162,38.583754,75.3726904
21.329189,38.583723,75.4726904
21.32921,38.583698,75.4726904
21.329221,38.583685,75.4726904
21.329248,38.583654,75.4726904
21.329269,38.583629,75.4726904
21.329285,38.583611,75.4726904
21.329301,38.583592,75.4726904
21.329322,38.583567,75.4726904
21.329344,38.583542,75.4726904
21.329365,38.583517,75.4726904
21.329381,38.583498,75.4726904
21.329408,38.583467,75.4726904
21.329424,38.583448,75.4726904
21.32944,38.58343,75.4726904
21.329467,38.583399,75.4726904
21.329489,38.583374,75.4726904
21.32951,38.58335,75.4726904
21.329526,38.583331,75.4726904
21.329547,38.583307,75.4726904
21.329574,38.583276,75.5726904
21.329595,38.583251,75.4726904
21.329616,38.583226,75.4726904
21.329638,38.583201,75.5726904
21.329653,38.583182,75.5726904
21.329669,38.583164,75.5726904
21.329696,38.583133,75.5726904
21.329718,38.583108,75.4726904
21.329745,38.583076,75.5726904
21.329766,38.583051,75.5726904
21.329793,38.58302,75.5726904
21.329809,38.583001,75.5726904
21.329836,38.58297,75.5726904
21.329857,38.582945,75.5726904
21.329873,38.582926,75.4726904
21.329895,38.582901,75.4726904
21.329916,38.582876,75.4726904
21.329937,38.582852,75.4726904
21.329964,38.582821,75.4726904
21.329985,38.582796,75.4726904
21.330012,38.582764,75.4726904
21.330027,38.582746,75.4726904
21.330043,38.582728,75.4726904
21.33007,38.582696,75.4726904
21.330092,38.582671,75.4726904
21.330113,38.582647,75.4726904
21.330134,38.582622,75.4726904
21.330161,38.582591,75.3726904
21.330177,38.582573,75.3726904
21.330193,38.582554,75.3726904
21.330214,38.58253,75.3726904
21.330235,38.582505,75.3726904
21.330257,38.58248,75.3726904
21.330279,38.582455,75.3726904
21.330289,38.582443,75.3726904
21.330316,38.582412,75.3726904
21.330337,38.582388,75.3726904
21.330352,38.582369,75.3726904
21.330379,38.582338,75.2726904
21.330395,38.582319,75.2726904
21.330416,38.582294,75.3726904
21.330438,38.582269,75.2726904
21.330454,38.58225,75.2726904
21.330475,38.582225,75.2726904
21.330497,38.5822,75.2726904
21.330518,38.582175,75.2726904
21.33054,38.582151,75.2726904
21.330556,38.582132,75.2726904
21.330583,38.582101,75.2726904
21.330604,38.582076,75.2726904
21.330626,38.582051,75.2726904
21.330647,38.582026,75.2726904
21.330663,38.582007,75.2726904
21.330689,38.581976,75.2726904
21.330716,38.581945,75.2726904
21.330731,38.581926,75.2726904
21.330752,38.581901,75.1726904
21.330768,38.581883,75.1726904
21.33079,38.581858,75.2726904
21.330811,38.581833,75.1726904
21.330832,38.581808,75.2726904
21.330858,38.581777,75.1726904
21.330874,38.581758,75.1726904
21.3309,38.581727,75.1726904
21.330922,38.581702,75.1726904
21.330937,38.581683,75.1726904
21.330958,38.581658,75.1726904
21.33098,38.581633,75.1726904
21.331007,38.581601,75.1726904
21.331029,38.581576,75.0726904
21.331051,38.581552,75.0726904
21.331078,38.581521,75.0726904
21.331089,38.581509,75.0726904
21.331121,38.581472,75.0726904
21.331142,38.581447,74.9726904
21.331164,38.581422,74.9726904
21.33119,38.581391,74.9726904
21.3312,38.581379,74.9726904
21.331227,38.581348,74.8726904
21.331248,38.581323,74.8726904
21.331264,38.581305,74.8726904
21.331285,38.58128,74.8726904
21.331301,38.581261,74.8726904
21.331322,38.581236,74.7726904
21.331349,38.581206,74.7726904
21.33137,38.581181,74.7726904
21.331397,38.58115,74.7726904
21.331418,38.581125,74.6726904
21.331439,38.5811,74.6726904
21.331461,38.581074,74.6726904
21.331482,38.581049,74.6726904
21.331504,38.581024,74.6726904
21.331525,38.581,74.6726904
21.331546,38.580975,74.5726904
21.331568,38.58095,74.5726904
21.331584,38.580931,74.5726904
21.331606,38.580906,74.5726904
21.331627,38.580881,74.4726904
21.331643,38.580863,74.4726904
21.33167,38.580832,74.3726904
21.331686,38.580813,74.3726904
21.331702,38.580794,74.3726904
21.331723,38.58077,74.3726904
21.331739,38.580751,74.3726904
21.331766,38.58072,74.2726904
21.331782,38.580701,74.2726904
21.331808,38.580671,74.2726904
21.331824,38.580652,74.2726904
21.331851,38.580621,74.1726904
21.331872,38.580596,74.1726904
21.331893,38.580572,74.1726904
21.331919,38.580541,74.0726904
21.33194,38.580517,74.0726904
21.331961,38.580491,74.0726904
21.331983,38.580466,74.0726904
21.331999,38.580447,73.9726904
21.332026,38.580416,73.9726904
21.332041,38.580398,73.9726904
21.332062,38.580373,73.9726904
21.332089,38.580342,73.9726904
21.332105,38.580323,73.8726904
21.332131,38.580292,73.8726904
21.332147,38.580273,73.8726904
21.332168,38.580248,73.8726904
21.332195,38.580217,73.8726904
21.332205,38.580205,73.7726904
21.332237,38.580168,73.7726904
21.332259,38.580143,73.7726904
21.332275,38.580124,73.7726904
21.332296,38.5801,73.7726904
21.332312,38.580081,73.6726904
21.332328,38.580063,73.6726904
21.332349,38.580038,73.6726904
21.332366,38.580019,73.6726904
21.332387,38.579994,73.6726904
21.332414,38.579963,73.6726904
21.33243,38.579945,73.5726904
21.332457,38.579914,73.5726904
21.332472,38.579895,73.5726904
21.332499,38.579864,73.4726904
21.332515,38.579845,73.4726904
21.332531,38.579827,73.4726904
21.332558,38.579796,73.4726904
21.332574,38.579777,73.4726904
21.3326,38.579747,73.4726904
21.332627,38.579716,73.3726904
21.332638,38.579703,73.3726904
21.332659,38.579678,73.3726904
21.332686,38.579646,73.2726904
21.332713,38.579615,73.2726904
21.332735,38.57959,73.2726904
21.332762,38.579559,73.2726904
21.332789,38.579528,73.2726904
21.33281,38.579504,73.1726904
21.332826,38.579485,73.1726904
21.332848,38.579461,73.1726904
21.332869,38.579436,73.1726904
21.33289,38.579411,73.1726904
21.332906,38.579393,73.0726904
21.332927,38.579368,73.0726904
21.332948,38.579343,73.0726904
21.332969,38.579318,73.0726904
21.332996,38.579287,72.9726904
21.333007,38.579274,72.9726904
21.333034,38.579243,72.9726904
21.333055,38.579218,72.9726904
21.333066,38.579206,72.9726904
21.333087,38.579181,72.9726904
21.333113,38.57915,72.9726904
21.333135,38.579126,72.9726904
21.333162,38.579094,72.8726904
21.333183,38.579069,72.8726904
21.33321,38.579038,72.8726904
21.333231,38.579013,72.8726904
21.333253,38.578988,72.8726904
21.333274,38.578963,72.7726904
21.333296,38.578938,72.7726904
21.333322,38.578907,72.7726904
21.333338,38.578889,72.7726904
21.33336,38.578864,72.7726904
21.333381,38.578839,72.7726904
21.333408,38.578808,72.7726904
21.333429,38.578783,72.7726904
21.333451,38.578758,72.8726904
21.333473,38.578733,72.8726904
21.333494,38.578708,72.8726904
21.333516,38.578684,72.8726904
21.333537,38.578659,72.8726904
21.333563,38.578628,72.8726904
21.33359,38.578597,72.8726904
21.333606,38.578578,72.8726904
21.333627,38.578554,72.9726904
21.333648,38.578529,72.9726904
21.333675,38.578499,72.9726904
21.333702,38.578468,73.0726904
21.333718,38.57845,73.0726904
21.333739,38.578425,73.0726904
21.33376,38.5784,73.0726904
21.333787,38.578369,73.0726904
21.333809,38.578344,73.1726904
21.333825,38.578325,73.1726904
21.333852,38.578294,73.1726904
21.333873,38.578269,73.1726904
21.333889,38.578251,73.2726904
21.333916,38.57822,73.2726904
21.333938,38.578195,73.2726904
21.333959,38.57817,73.3726904
21.333981,38.578145,73.3726904
21.333997,38.578127,73.3726904
21.334018,38.578102,73.4726904
21.33404,38.578077,73.4726904
21.334072,38.578039,73.4726904
21.334093,38.578015,73.5726904
21.33412,38.577984,73.5726904
21.334137,38.577965,73.5726904
21.334164,38.577934,73.5726904
21.334185,38.577909,73.6726904
21.334212,38.577878,73.6726904
21.334234,38.577853,73.6726904
21.33426,38.577823,73.7726904
21.334276,38.577804,73.7726904
21.334292,38.577786,73.7726904
21.334324,38.577749,73.8726904
21.334346,38.577723,73.8726904
21.334368,38.577698,73.8726904
21.334389,38.577674,73.8726904
21.334411,38.577649,73.9726904
21.334437,38.577619,73.9726904
21.334459,38.577594,73.9726904
21.334486,38.577563,73.9726904
21.334507,38.577538,73.9726904
21.334523,38.57752,73.9726904
21.334544,38.577495,73.9726904
21.33456,38.577476,74.0726904
21.334581,38.577451,74.0726904
21.334608,38.57742,74.0726904
21.334629,38.577395,74.0726904
21.334661,38.577358,74.1726904
21.334667,38.577352,74.1726904
21.334694,38.577321,74.1726904
21.334715,38.577295,74.1726904
21.334726,38.577283,74.1726904
21.334742,38.577264,74.1726904
21.334758,38.577245,74.1726904
21.334774,38.577227,74.1726904
21.334801,38.577196,74.2726904
21.334823,38.577171,74.2726904
21.334839,38.577152,74.2726904
21.33486,38.577128,74.2726904
21.334882,38.577103,74.2726904
21.334903,38.577078,74.2726904
21.334935,38.577041,74.2726904
21.334956,38.577016,74.2726904
21.334972,38.576997,74.3726904
21.334999,38.576966,74.3726904
21.335026,38.576934,74.2726904
21.335052,38.576904,74.2726904
21.335073,38.576878,74.2726904
21.335095,38.576854,74.3726904
21.335111,38.576835,74.2726904
21.335132,38.576811,74.2726904
21.335153,38.576786,74.3726904
21.335175,38.576762,74.2726904
21.335196,38.576737,74.2726904
21.335222,38.576707,74.2726904
21.335243,38.576682,74.2726904
21.335264,38.576657,74.2726904
21.335291,38.576626,74.2726904
21.335312,38.576601,74.2726904
21.335333,38.576576,74.2726904
21.335355,38.576551,74.2726904
21.335376,38.576526,74.2726904
21.335398,38.576502,74.3726904
21.335419,38.576477,74.3726904
21.335436,38.576458,74.3726904
21.335462,38.576426,74.2726904
21.335478,38.576408,74.2726904
21.335504,38.576377,74.2726904
21.33552,38.576358,74.2726904
21.335542,38.576332,74.2726904
21.335563,38.576308,74.2726904
21.335584,38.576283,74.2726904
21.335605,38.576258,74.2726904
21.335627,38.576233,74.2726904
21.335648,38.576208,74.2726904
21.335669,38.576183,74.1726904
21.33569,38.576158,74.1726904
21.335717,38.576127,74.1726904
21.335733,38.576108,74.1726904
21.335749,38.57609,74.1726904
21.33577,38.576065,74.1726904
21.335786,38.576046,74.1726904
21.335807,38.576021,74.1726904
21.335823,38.576003,74.1726904
21.335844,38.575978,74.1726904
21.335865,38.575953,74.1726904
21.335892,38.575922,74.1726904
21.335913,38.575898,74.1726904
21.335929,38.575879,74.1726904
21.335944,38.575861,74.1726904
21.335966,38.575836,74.1726904
21.335987,38.575811,74.1726904
21.336009,38.575786,74.1726904
21.336035,38.575755,74.1726904
21.336056,38.57573,74.0726904
21.336078,38.575705,74.0726904
21.336099,38.57568,74.0726904
21.33612,38.575655,74.0726904
21.336142,38.575631,74.0726904
21.336158,38.575612,74.0726904
21.336184,38.575581,73.9726904
21.336206,38.575556,73.9726904
21.336227,38.575532,73.9726904
21.336248,38.575507,73.9726904
21.336264,38.575488,73.9726904
21.336286,38.575463,73.9726904
21.336302,38.575445,73.9726904
21.336323,38.57542,73.9726904
21.336349,38.575389,73.9726904
21.33637,38.575364,73.9726904
21.336391,38.575339,73.9726904
21.336418,38.575308,73.9726904
21.336434,38.575289,73.8726904
21.336455,38.575264,73.8726904
21.336477,38.575239,73.8726904
21.336498,38.575215,73.8726904
21.336519,38.575189,73.9726904
21.336541,38.575164,73.8726904
21.336562,38.57514,73.9726904
21.336584,38.575115,73.9726904
21.336605,38.57509,73.9726904
21.336621,38.575071,73.9726904
21.336637,38.575052,73.9726904
21.336658,38.575028,73.9726904
21.336679,38.575003,73.9726904
21.3367,38.574978,73.9726904
21.336727,38.574947,73.9726904
21.336743,38.574928,73.9726904
21.336769,38.574897,73.9726904
21.33679,38.574872,73.9726904
21.336806,38.574854,73.9726904
21.336833,38.574822,73.9726904
21.336854,38.574798,73.9726904
21.336881,38.574766,73.9726904
21.336903,38.574742,73.9726904
21.336925,38.574717,73.9726904
21.336946,38.574692,73.9726904
21.336957,38.574679,73.9726904
21.336984,38.574648,73.9726904
21.336999,38.57463,73.9726904
21.337021,38.574606,73.9726904
21.337048,38.574575,73.9726904
21.337064,38.574556,73.9726904
21.33709,38.574525,73.9726904
21.337112,38.5745,73.9726904
21.337133,38.574476,73.9726904
21.337149,38.574457,73.9726904
21.33717,38.574432,73.9726904
21.337197,38.574401,73.9726904
21.337223,38.57437,73.9726904
21.337245,38.574345,73.9726904
21.337271,38.574314,73.9726904
21.337298,38.574283,73.9726904
21.337319,38.574258,73.9726904
21.337346,38.574227,74.0726904
21.337368,38.574203,74.0726904
21.337384,38.574184,74.0726904
21.337405,38.57416,74.0726904
21.337426,38.574135,74.0726904
21.337453,38.574104,74.0726904
21.337474,38.574079,74.0726904
21.33749,38.57406,74.0726904
21.337517,38.574029,74.0726904
21.337539,38.574004,74.0726904
21.337555,38.573986,74.0726904
21.337582,38.573955,74.0726904
21.337609,38.573923,74.0726904
21.337631,38.573899,74.0726904
21.337652,38.573874,74.0726904
21.337668,38.573855,74.0726904
21.337689,38.57383,74.0726904
21.33771,38.573806,74.0726904
21.337737,38.573775,74.0726904
21.337759,38.57375,74.0726904
21.33777,38.573738,74.0726904
21.337797,38.573707,74.1726904
21.337818,38.573682,74.1726904
21.337834,38.573663,74.1726904
21.337855,38.573638,74.1726904
21.337876,38.573614,74.1726904
21.337898,38.573589,74.1726904
21.337919,38.573564,74.1726904
21.337941,38.573539,74.1726904
21.337962,38.573514,74.1726904
21.337984,38.573489,74.1726904
21.33801,38.573457,74.1726904
21.338026,38.573439,74.1726904
21.338047,38.573413,74.1726904
21.338063,38.573394,74.1726904
21.338084,38.573369,74.1726904
21.338105,38.573344,74.1726904
21.338127,38.573319,74.1726904
21.338144,38.5733,74.1726904
21.338165,38.573275,74.1726904
21.338187,38.57325,74.1726904
21.338197,38.573238,74.1726904
21.338224,38.573207,74.1726904
21.33825,38.573177,74.1726904
21.338271,38.573152,74.1726904
21.338292,38.573128,74.1726904
21.338313,38.573103,74.1726904
21.33834,38.573072,74.1726904
21.338361,38.573048,74.1726904
21.338387,38.573017,74.1726904
21.338409,38.572992,74.2726904
21.33843,38.572967,74.2726904
21.338451,38.572942,74.2726904
21.338472,38.572917,74.2726904
21.338494,38.572892,74.2726904
21.338515,38.572867,74.2726904
21.338531,38.572849,74.2726904
21.338552,38.572824,74.2726904
21.338573,38.572799,74.2726904
21.3386,38.572768,74.3726904
21.338616,38.572749,74.2726904
21.338643,38.572718,74.2726904
21.338664,38.572694,74.2726904
21.338685,38.572669,74.2726904
21.338707,38.572644,74.2726904
21.338728,38.572619,74.2726904
21.338755,38.572587,74.2726904
21.338771,38.572569,74.2726904
21.338798,38.572537,74.2726904
21.338824,38.572506,74.2726904
21.338845,38.572481,74.2726904
21.338872,38.572449,74.2726904
21.338888,38.572431,74.2726904
21.338915,38.5724,74.2726904
21.338936,38.572375,74.2726904
21.338963,38.572344,74.2726904
21.338984,38.57232,74.2726904
21.339,38.572302,74.2726904
21.339021,38.572277,74.2726904
21.339037,38.572258,74.2726904
21.339058,38.572233,74.2726904
21.339079,38.572209,74.3726904
21.339089,38.572196,74.3726904
21.33911,38.572171,74.3726904
21.339131,38.572146,74.3726904
21.339153,38.572121,74.3726904
21.33918,38.57209,74.3726904
21.339206,38.572058,74.3726904
21.339233,38.572027,74.3726904
21.339249,38.572009,74.3726904
21.339275,38.571977,74.3726904
21.339301,38.571946,74.3726904
21.339312,38.571934,74.3726904
21.339338,38.571903,74.3726904
21.339359,38.571878,74.3726904
21.339375,38.571859,74.3726904
21.339397,38.571835,74.3726904
21.339418,38.57181,74.3726904
21.339445,38.571778,74.3726904
21.339466,38.571753,74.4726904
21.339488,38.571728,74.3726904
21.339509,38.571703,74.4726904
21.339535,38.571672,74.4726904
21.339546,38.571659,74.4726904
21.339567,38.571634,74.4726904
21.339588,38.571609,74.3726904
21.339614,38.571579,74.3726904
21.33963,38.571561,74.4726904
21.339657,38.57153,74.4726904
21.339678,38.571505,74.4726904
21.3397,38.571481,74.4726904
21.339716,38.571462,74.4726904
21.339737,38.571437,74.4726904
21.339759,38.571412,74.4726904
21.339781,38.571387,74.4726904
21.339808,38.571357,74.5726904
21.339819,38.571344,74.5726904
21.33984,38.57132,74.5726904
21.339857,38.571301,74.5726904
21.339884,38.57127,74.5726904
21.339894,38.571258,74.5726904
21.339916,38.571234,74.5726904
21.339938,38.571209,74.5726904
21.339961,38.571185,74.5726904
21.339983,38.57116,74.5726904
21.339999,38.571142,74.5726904
21.340027,38.571111,74.5726904
21.340044,38.571093,74.6726904
21.340066,38.571069,74.5726904
21.340095,38.571039,74.6726904
21.340117,38.571014,74.6726904
21.340145,38.570984,74.6726904
21.340156,38.570972,74.6726904
21.340173,38.570954,74.6726904
21.340201,38.570924,74.6726904
21.340223,38.5709,74.6726904
21.340245,38.570876,74.6726904
21.340267,38.570852,74.7726904
21.340278,38.57084,74.7726904
21.340301,38.570815,74.7726904
21.340324,38.570791,74.7726904
21.340347,38.570766,74.7726904
21.340376,38.570736,74.8726904
21.340399,38.570712,74.8726904
21.340417,38.570694,74.8726904
21.340446,38.570664,74.8726904
21.340469,38.570641,74.8726904
21.340492,38.570617,74.8726904
21.340509,38.570599,74.9726904
21.340538,38.570569,74.9726904
21.340566,38.570539,74.9726904
21.340584,38.570521,74.9726904
21.340613,38.570491,74.9726904
21.340636,38.570467,74.9726904
21.340659,38.570444,74.9726904
21.340683,38.57042,75.0726904
21.340706,38.570396,75.0726904
21.340735,38.570367,75.0726904
21.340759,38.570343,75.0726904
21.340788,38.570314,75.1726904
21.340811,38.57029,75.1726904
21.340841,38.570261,75.2726904
21.340864,38.570238,75.2726904
21.340881,38.57022,75.2726904
21.340911,38.57019,75.2726904
21.340934,38.570166,75.2726904
21.340957,38.570143,75.3726904
21.34098,38.570119,75.3726904
21.340998,38.570101,75.3726904
21.341021,38.570077,75.3726904
21.341044,38.570054,75.4726904
21.341061,38.570036,75.4726904
21.34109,38.570006,75.4726904
21.341114,38.569983,75.5726904
21.341137,38.569959,75.5726904
21.341154,38.569941,75.5726904
21.341183,38.569911,75.5726904
21.341206,38.569888,75.5726904
21.341218,38.569876,75.5726904
21.341236,38.569859,75.6726904
21.34126,38.569835,75.6726904
21.341278,38.569816,75.6726904
21.341301,38.569792,75.6726904
21.341324,38.569768,75.6726904
21.341348,38.569745,75.6726904
21.341377,38.569715,75.7726904
21.341389,38.569703,75.7726904
21.341418,38.569674,75.7726904
21.341442,38.56965,75.8726904
21.341465,38.569626,75.8726904
21.341489,38.569603,75.8726904
21.341512,38.569579,75.8726904
21.341541,38.569549,75.9726904
21.341564,38.569526,75.9726904
21.341593,38.569496,75.9726904
21.341616,38.569473,75.9726904
21.341646,38.569443,76.0726904
21.341675,38.569413,76.0726904
21.341698,38.569389,76.0726904
21.341715,38.569371,76.0726904
21.341739,38.569348,76.0726904
21.341767,38.569319,76.0726904
21.34179,38.569295,76.1726904
21.341808,38.569278,76.1726904
21.341843,38.569242,76.1726904
21.341866,38.569219,76.1726904
21.341895,38.569188,76.2726904
21.341919,38.569164,76.2726904
21.341948,38.569134,76.2726904
21.341966,38.569116,76.2726904
21.341989,38.569093,76.2726904
21.342019,38.569063,76.2726904
21.342036,38.569046,76.2726904
21.342066,38.569016,76.2726904
21.342083,38.568998,76.2726904
21.342106,38.568974,76.2726904
21.342136,38.568944,76.3726904
21.342153,38.568927,76.3726904
21.342176,38.568903,76.3726904
21.3422,38.568879,76.3726904
21.342223,38.568855,76.3726904
21.342253,38.568826,76.3726904
21.342276,38.568802,76.3726904
21.342305,38.568772,76.3726904
21.342317,38.56876,76.3726904
21.34234,38.568736,76.4726904
21.342369,38.568707,76.4726904
21.342387,38.568689,76.4726904
21.342416,38.568659,76.4726904
21.342434,38.568641,76.4726904
21.342457,38.568617,76.4726904
21.34248,38.568593,76.4726904
21.342492,38.568581,76.4726904
21.342515,38.568558,76.4726904
21.342539,38.568534,76.4726904
21.342562,38.56851,76.5726904
21.34258,38.568493,76.5726904
21.342597,38.568475,76.4726904
21.342621,38.568451,76.4726904
21.342644,38.568428,76.4726904
21.342674,38.568398,76.4726904
21.342697,38.568374,76.4726904
21.342727,38.568344,76.4726904
21.34275,38.56832,76.4726904
21.342773,38.568297,76.4726904
21.342785,38.568285,76.4726904
21.342808,38.568261,76.4726904
21.342831,38.568238,76.4726904
21.342854,38.568214,76.4726904
21.342877,38.568191,76.4726904
21.342889,38.568179,76.4726904
21.342912,38.568155,76.4726904
21.342941,38.568125,76.5726904
21.342958,38.568107,76.5726904
21.342982,38.568084,76.5726904
21.342999,38.568066,76.5726904
21.343017,38.568048,76.5726904
21.343046,38.568019,76.5726904
21.343064,38.568001,76.5726904
21.343081,38.567984,76.5726904
21.343111,38.567954,76.5726904
21.343129,38.567936,76.5726904
21.343152,38.567912,76.5726904
21.343175,38.567888,76.5726904
21.343199,38.567864,76.5726904
21.343222,38.567841,76.5726904
21.34324,38.567823,76.5726904
21.343257,38.567805,76.5726904
21.343275,38.567787,76.5726904
21.343292,38.567769,76.4726904
21.343309,38.567752,76.4726904
21.343327,38.567734,76.5726904
21.34335,38.567711,76.5726904
21.343373,38.567687,76.5726904
21.343402,38.567658,76.4726904
21.343425,38.567634,76.5726904
21.343448,38.56761,76.5726904
21.343483,38.567574,76.5726904
21.343501,38.567556,76.5726904
21.343518,38.567538,76.5726904
21.343542,38.567514,76.5726904
21.343559,38.567496,76.5726904
21.343577,38.567479,76.5726904
21.343601,38.567455,76.5726904
21.343618,38.567437,76.5726904
21.343642,38.567413,76.5726904
21.343665,38.56739,76.5726904
21.343682,38.567372,76.5726904
21.343706,38.567349,76.5726904
21.343717,38.567337,76.5726904
21.343741,38.567313,76.4726904
21.343764,38.567289,76.5726904
21.343782,38.567272,76.5726904
21.343805,38.567248,76.4726904
21.343834,38.567218,76.4726904
21.343851,38.5672,76.4726904
21.34388,38.567171,76.5726904
21.343897,38.567153,76.5726904
21.34392,38.56713,76.5726904
21.343943,38.567106,76.5726904
21.343966,38.567082,76.5726904
21.343995,38.567052,76.5726904
21.344007,38.56704,76.5726904
21.344036,38.567011,76.5726904
21.344053,38.566993,76.5726904
21.344077,38.566969,76.5726904
21.344088,38.566957,76.5726904
21.344118,38.566928,76.5726904
21.344141,38.566904,76.5726904
21.344158,38.566886,76.5726904
21.344182,38.566862,76.5726904
21.344205,38.566838,76.5726904
21.344235,38.566809,76.5726904
21.344252,38.566791,76.5726904
21.344281,38.566761,76.5726904
21.344299,38.566744,76.5726904
21.344328,38.566714,76.5726904
21.344351,38.56669,76.5726904
21.344374,38.566666,76.6726904
21.344404,38.566636,76.5726904
21.344427,38.566613,76.5726904
21.34445,38.566589,76.5726904
21.344468,38.566571,76.5726904
21.344502,38.566535,76.5726904
21.344526,38.566511,76.5726904
21.344549,38.566487,76.5726904
21.344566,38.56647,76.5726904
21.344589,38.566446,76.5726904
21.344613,38.566423,76.5726904
21.344636,38.566399,76.5726904
21.344654,38.566381,76.5726904
21.344683,38.566351,76.5726904
21.3447,38.566333,76.5726904
21.344712,38.566321,76.5726904
21.344735,38.566297,76.5726904
21.344764,38.566268,76.6726904
21.344781,38.56625,76.6726904
21.344816,38.566214,76.5726904
21.344834,38.566197,76.5726904
21.344857,38.566173,76.5726904
21.34488,38.56615,76.5726904
21.344898,38.566132,76.5726904
21.344933,38.566096,76.6726904
21.34495,38.566078,76.6726904
21.34498,38.566048,76.6726904
21.345003,38.566024,76.6726904
21.345026,38.566,76.6726904
21.34505,38.565977,76.6726904
21.345067,38.565959,76.6726904
21.345091,38.565935,76.6726904
21.345114,38.565911,76.6726904
21.345132,38.565893,76.6726904
21.345161,38.565863,76.6726904
21.345184,38.565839,76.6726904
21.345213,38.56581,76.6726904
21.345237,38.565786,76.6726904
21.34526,38.565762,76.6726904
21.345289,38.565733,76.6726904
21.345313,38.565709,76.6726904
21.345336,38.565685,76.6726904
21.345347,38.565673,76.6726904
21.345376,38.565643,76.6726904
21.345405,38.565613,76.6726904
21.345417,38.565601,76.6726904
21.345446,38.565571,76.6726904
21.345463,38.565553,76.6726904
21.345486,38.56553,76.6726904
21.345509,38.565506,76.6726904
21.34552,38.565494,76.6726904
21.345549,38.565464,76.6726904
21.345572,38.565441,76.6726904
21.345595,38.565417,76.6726904
21.345624,38.565387,76.6726904
21.345647,38.565363,76.6726904
21.34567,38.565339,76.6726904
21.345694,38.565316,76.6726904
21.345711,38.565298,76.6726904
21.34574,38.565268,76.7726904
21.345763,38.565244,76.7726904
21.345786,38.565221,76.7726904
21.345809,38.565197,76.7726904
21.345827,38.565179,76.7726904
21.34585,38.565155,76.7726904
21.345867,38.565137,76.7726904
21.345896,38.565107,76.7726904
21.345925,38.565077,76.7726904
21.345942,38.56506,76.7726904
21.345971,38.56503,76.7726904
21.345994,38.565006,76.7726904
21.346023,38.564976,76.7726904
21.346046,38.564952,76.7726904
21.346069,38.564928,76.7726904
21.346098,38.564898,76.7726904
21.346127,38.564868,76.7726904
21.34615,38.564845,76.7726904
21.346162,38.564833,76.8726904
21.346191,38.564803,76.8726904
21.346208,38.564785,76.8726904
21.346226,38.564767,76.8726904
21.346249,38.564744,76.8726904
21.346278,38.564714,76.8726904
21.346307,38.564684,76.7726904
21.34633,38.564661,76.7726904
21.346353,38.564637,76.8726904
21.346376,38.564613,76.7726904
21.346393,38.564595,76.7726904
21.346411,38.564577,76.7726904
21.346434,38.564553,76.8726904
21.346457,38.564529,76.8726904
21.346486,38.5645,76.8726904
21.346509,38.564476,76.8726904
21.346538,38.564446,76.8726904
21.346561,38.564422,76.8726904
21.346584,38.564398,76.8726904
21.346608,38.564374,76.8726904
21.346625,38.564357,76.8726904
21.34666,38.564321,76.8726904
21.346683,38.564297,76.8726904
21.346712,38.564267,76.8726904
21.346735,38.564243,76.8726904
21.346758,38.564219,76.8726904
21.346781,38.564195,76.8726904
21.346799,38.564177,76.8726904
21.346828,38.564147,76.9726904
21.346851,38.564124,76.8726904
21.34688,38.564094,76.9726904
21.346903,38.56407,76.9726904
21.346921,38.564052,76.9726904
21.34695,38.564023,76.9726904
21.346967,38.564005,76.9726904
21.346985,38.563987,76.9726904
21.347014,38.563957,76.9726904
21.347037,38.563933,76.9726904
21.347066,38.563903,76.9726904
21.347089,38.56388,76.9726904
21.347118,38.56385,76.9726904
21.347141,38.563826,76.9726904
21.347164,38.563802,76.9726904
21.347188,38.563778,76.9726904
21.347199,38.563766,76.9726904
21.347228,38.563737,76.9726904
21.347252,38.563713,76.9726904
21.347275,38.563689,76.9726904
21.347304,38.563659,76.9726904
21.347321,38.563642,76.9726904
21.34735,38.563612,77.0726904
21.347374,38.563588,77.0726904
21.347391,38.56357,77.0726904
21.347414,38.563546,77.0726904
21.347432,38.563528,77.0726904
21.347449,38.56351,77.0726904
21.347472,38.563487,77.0726904
21.347495,38.563463,77.0726904
21.347518,38.563439,77.0726904
21.347541,38.563416,77.1726904
21.347565,38.563392,77.3726904
21.347588,38.563369,77.5726904
21.347612,38.563346,77.8726904
21.347642,38.563317,78.2726904
21.34766,38.5633,78.5726904
21.347672,38.563289,78.7726904
21.347703,38.56326,79.2726904
21.347721,38.563243,79.4726904
21.347738,38.563227,79.7726904
21.347759,38.563207,80.0726904
21.347777,38.563192,80.2726904
21.34779,38.563181,80.4726904
21.347795,38.563176,80.5726904
21.347799,38.563166,80.8726904
21.347797,38.563156,81.0726904
21.34779,38.563146,81.2726904
21.347784,38.563142,81.3726904
21.347775,38.563135,81.5726904
21.347754,38.563122,81.8726904
21.347734,38.56311,82.1726904
21.347716,38.563099,82.2726904
21.347703,38.563091,82.3726904
21.347695,38.563088,82.4726904
21.347688,38.563086,82.5726904
21.347683,38.563086,82.4726904
21.347678,38.563087,82.3726904
21.347673,38.563091,82.1726904
21.347671,38.563096,82.0726904
21.347669,38.563105,81.6726904
21.347668,38.56311,81.5726904
21.347666,38.563121,81.2726904
21.347664,38.563131,81.0726904
21.347662,38.563147,80.7726904
21.347659,38.56316,80.5726904
21.347655,38.563174,80.3726904
21.347649,38.563194,80.1726904
21.347642,38.563215,79.7726904
21.347636,38.563232,79.4726904
21.347625,38.563262,78.9726904
21.347618,38.563281,78.6726904
21.347607,38.563307,78.2726904
21.347596,38.563334,77.8726904
21.347584,38.563361,77.3726904
21.347574,38.563381,77.0726904
21.347556,38.563408,76.9726904
21.347533,38.563431,76.9726904
21.347509,38.563454,76.9726904
21.347491,38.563472,76.9726904
21.347467,38.563496,76.8726904
21.34745,38.563514,76.8726904
21.347432,38.563533,76.8726904
21.347409,38.563557,76.8726904
21.347391,38.563575,76.8726904
21.347373,38.563593,76.8726904
21.347344,38.563623,76.9726904
21.34732,38.563647,76.9726904
21.347309,38.563659,76.9726904
21.347285,38.563683,76.9726904
21.347262,38.563706,76.8726904
21.347244,38.563724,76.8726904
21.347227,38.563742,76.8726904
21.347204,38.563766,76.8726904
21.347186,38.563784,76.9726904
21.347157,38.563814,76.8726904
21.347134,38.563838,76.8726904
21.347111,38.563862,76.8726904
21.347093,38.56388,76.8726904
21.347082,38.563891,76.8726904
21.347053,38.563921,76.8726904
21.347041,38.563933,76.8726904
21.347018,38.563957,76.8726904
21.346989,38.563987,76.8726904
21.346966,38.56401,76.8726904
21.346943,38.564034,76.8726904
21.34692,38.564058,76.8726904
21.346902,38.564076,76.8726904
21.346885,38.564094,76.8726904
21.346856,38.564124,76.8726904
21.346833,38.564148,76.8726904
21.346804,38.564177,76.8726904
21.346787,38.564195,76.8726904
21.34677,38.564213,76.8726904
21.346741,38.564243,76.8726904
21.346718,38.564267,76.8726904
21.346689,38.564297,76.8726904
21.346672,38.564314,76.8726904
21.346643,38.564344,76.8726904
21.346625,38.564362,76.8726904
21.346596,38.564392,76.7726904
21.346567,38.564422,76.7726904
21.346544,38.564446,76.7726904
21.346521,38.56447,76.7726904
21.346509,38.564482,76.7726904
21.346486,38.564506,76.7726904
21.346463,38.564529,76.7726904
21.34644,38.564553,76.7726904
21.346411,38.564583,76.7726904
21.346388,38.564607,76.7726904
21.346371,38.564625,76.7726904
21.346348,38.564649,76.7726904
21.346336,38.56466,76.7726904
21.346307,38.56469,76.7726904
21.346284,38.564714,76.7726904
21.346261,38.564738,76.7726904
21.346238,38.564762,76.7726904
21.346215,38.564786,76.7726904
21.346186,38.564816,76.7726904
21.346163,38.56484,76.7726904
21.34614,38.564863,76.7726904
21.346122,38.564881,76.7726904
21.346105,38.564899,76.7726904
21.346081,38.564923,76.7726904
21.346052,38.564953,76.7726904
21.346029,38.564977,76.7726904
21.346012,38.564995,76.7726904
21.345989,38.565018,76.6726904
21.345966,38.565042,76.7726904
21.345943,38.565066,76.7726904
21.34592,38.56509,76.7726904
21.345897,38.565114,76.7726904
21.345879,38.565132,76.7726904
21.345856,38.565156,76.6726904
21.345839,38.565173,76.6726904
21.345816,38.565197,76.6726904
21.345804,38.565209,76.6726904
21.345775,38.565239,76.7726904
21.345752,38.565263,76.6726904
21.345723,38.565292,76.6726904
21.3457,38.565316,76.6726904
21.345677,38.56534,76.6726904
21.345648,38.565369,76.6726904
21.34563,38.565388,76.6726904
21.345607,38.565411,76.6726904
21.345589,38.565429,76.6726904
21.345566,38.565453,76.6726904
21.345549,38.565471,76.6726904
21.345519,38.565501,76.6726904
21.34549,38.565531,76.6726904
21.345467,38.565555,76.6726904
21.345437,38.565585,76.5726904
21.345408,38.565614,76.5726904
21.345385,38.565638,76.5726904
21.345368,38.565656,76.5726904
21.345344,38.56568,76.5726904
21.345315,38.565709,76.5726904
21.345292,38.565733,76.5726904
21.345275,38.56575,76.5726904
21.345252,38.565774,76.5726904
21.345229,38.565798,76.5726904
21.3452,38.565827,76.5726904
21.345177,38.565851,76.5726904
21.345153,38.565875,76.4726904
21.345125,38.565904,76.4726904
21.345102,38.565928,76.4726904
21.345079,38.565952,76.4726904
21.345061,38.56597,76.4726904
21.345032,38.566,76.4726904
21.345003,38.56603,76.4726904
21.344979,38.566054,76.4726904
21.344961,38.566072,76.4726904
21.344943,38.56609,76.4726904
21.34492,38.566114,76.4726904
21.344897,38.566138,76.3726904
21.344879,38.566156,76.3726904
21.344862,38.566173,76.3726904
21.344833,38.566203,76.3726904
21.344815,38.566221,76.3726904
21.344786,38.566251,76.3726904
21.344763,38.566274,76.2726904
21.344745,38.566292,76.2726904
21.344716,38.566322,76.2726904
21.344699,38.56634,76.2726904
21.344681,38.566357,76.2726904
21.344658,38.566381,76.2726904
21.344635,38.566404,76.2726904
21.344612,38.566428,76.2726904
21.344589,38.566452,76.1726904
21.344565,38.566476,76.1726904
21.344554,38.566487,76.1726904
21.344524,38.566517,76.1726904
21.344501,38.566541,76.1726904
21.344483,38.566558,76.1726904
21.344471,38.56657,76.1726904
21.344442,38.5666,76.0726904
21.344418,38.566624,76.0726904
21.344395,38.566647,76.0726904
21.344378,38.566665,76.0726904
21.344355,38.566689,76.0726904
21.344332,38.566712,76.0726904
21.344309,38.566736,76.0726904
21.344286,38.566759,76.0726904
21.344262,38.566783,76.0726904
21.344245,38.566801,76.0726904
21.344227,38.566819,75.9726904
21.344198,38.566849,75.9726904
21.344174,38.566873,75.9726904
21.344151,38.566897,75.9726904
21.344127,38.566921,75.9726904
21.344104,38.566945,75.9726904
21.344075,38.566975,75.8726904
21.344063,38.566987,75.8726904
21.344046,38.567004,75.8726904
21.344017,38.567034,75.8726904
21.344,38.567051,75.8726904
21.343977,38.567075,75.8726904
21.343953,38.567098,75.8726904
21.343942,38.56711,75.8726904
21.343912,38.56714,75.8726904
21.343895,38.567158,75.8726904
21.343872,38.567181,75.8726904
21.343843,38.567211,75.8726904
21.343821,38.567234,75.8726904
21.343792,38.567264,75.8726904
21.34378,38.567276,75.8726904
21.343757,38.567299,75.8726904
21.343727,38.567329,75.8726904
21.343704,38.567352,75.8726904
21.343681,38.567376,75.8726904
21.343657,38.5674,75.8726904
21.34364,38.567418,75.8726904
21.34361,38.567448,75.8726904
21.343586,38.567472,75.8726904
21.343557,38.567502,75.8726904
21.343539,38.567519,75.8726904
21.343516,38.567543,75.8726904
21.343493,38.567567,75.8726904
21.343469,38.567591,75.8726904
21.343452,38.567608,75.9726904
21.343428,38.567632,75.9726904
21.343405,38.567656,75.9726904
21.343382,38.567679,75.9726904
21.343364,38.567697,75.9726904
21.343335,38.567727,75.9726904
21.343317,38.567745,75.9726904
21.343294,38.567769,75.9726904
21.343277,38.567787,75.9726904
21.343254,38.56781,76.0726904
21.34323,38.567834,76.0726904
21.343213,38.567852,76.0726904
21.34319,38.567876,76.0726904
21.343166,38.567899,76.0726904
21.343138,38.567928,76.0726904
21.34312,38.567946,76.1726904
21.343097,38.56797,76.1726904
21.343073,38.567994,76.1726904
21.34305,38.568017,76.1726904
21.343032,38.568035,76.1726904
21.343015,38.568053,76.1726904
21.342986,38.568083,76.1726904
21.342968,38.5681,76.1726904
21.342957,38.568112,76.2726904
21.34294,38.56813,76.2726904
21.342916,38.568154,76.2726904
21.342899,38.568171,76.2726904
21.342869,38.568201,76.2726904
21.342846,38.568225,76.2726904
21.342823,38.568248,76.2726904
21.342805,38.568266,76.3726904
21.342788,38.568284,76.3726904
21.34277,38.568302,76.3726904
21.342752,38.56832,76.3726904
21.342729,38.568344,76.3726904
21.342711,38.568362,76.3726904
21.342688,38.568386,76.3726904
21.342671,38.568403,76.3726904
21.342647,38.568427,76.3726904
21.34263,38.568445,76.4726904
21.342612,38.568463,76.4726904
21.342595,38.56848,76.4726904
21.342571,38.568504,76.4726904
21.342548,38.568528,76.4726904
21.342525,38.568551,76.4726904
21.342496,38.568581,76.5726904
21.342478,38.568599,76.5726904
21.342455,38.568623,76.5726904
21.342432,38.568647,76.5726904
21.342408,38.56867,76.5726904
21.342385,38.568694,76.5726904
21.342368,38.568712,76.5726904
21.342339,38.568741,76.5726904
21.342316,38.568765,76.5726904
21.342299,38.568783,76.5726904
21.34227,38.568813,76.5726904
21.342246,38.568836,76.5726904
21.342223,38.56886,76.5726904
21.342206,38.568877,76.5726904
21.342183,38.568901,76.5726904
21.342159,38.568925,76.5726904
21.342141,38.568943,76.5726904
21.342112,38.568973,76.5726904
21.342094,38.56899,76.5726904
21.342065,38.56902,76.5726904
21.342036,38.569049,76.5726904
21.342013,38.569073,76.5726904
21.34199,38.569096,76.5726904
21.341966,38.56912,76.5726904
21.341943,38.569144,76.5726904
21.341919,38.569168,76.5726904
21.341896,38.569192,76.5726904
21.341872,38.569215,76.5726904
21.341855,38.569233,76.5726904
21.341831,38.569257,76.5726904
21.341802,38.569287,76.4726904
21.341778,38.56931,76.4726904
21.341749,38.56934,76.4726904
21.341732,38.569358,76.4726904
21.341703,38.569387,76.4726904
21.341679,38.569411,76.4726904
21.34165,38.569441,76.3726904
21.341626,38.569465,76.3726904
21.341602,38.569488,76.3726904
21.341573,38.569518,76.3726904
21.341556,38.569536,76.2726904
21.341527,38.569565,76.2726904
21.341503,38.569589,76.2726904
21.341486,38.569606,76.2726904
21.341457,38.569636,76.1726904
21.341439,38.569654,76.1726904
21.34141,38.569683,76.1726904
21.341393,38.5697,76.1726904
21.341375,38.569718,76.0726904
21.341345,38.569748,76.0726904
21.341328,38.569766,76.0726904
21.34131,38.569783,76.0726904
21.341287,38.569807,75.9726904
21.341269,38.569825,75.9726904
21.341258,38.569837,75.9726904
21.341234,38.56986,75.9726904
21.341211,38.569885,75.8726904
21.341193,38.569903,75.8726904
21.34117,38.569927,75.8726904
21.341146,38.56995,75.7726904
21.341123,38.569974,75.7726904
21.3411,38.569998,75.7726904
21.341076,38.570021,75.6726904
21.341053,38.570045,75.6726904
21.341029,38.570068,75.6726904
21.340995,38.570104,75.5726904
21.340971,38.570127,75.5726904
21.340948,38.570151,75.5726904
21.340919,38.570181,75.5726904
21.340902,38.570199,75.4726904
21.340884,38.570216,75.4726904
21.340861,38.57024,75.4726904
21.340831,38.57027,75.3726904
21.340802,38.570299,75.3726904
21.340779,38.570323,75.3726904
21.340761,38.570341,75.3726904
21.340743,38.570358,75.3726904
21.340714,38.570388,75.2726904
21.340685,38.570418,75.2726904
21.340667,38.570436,75.2726904
21.340638,38.570465,75.2726904
21.34062,38.570484,75.1726904
21.340597,38.570507,75.1726904
21.340574,38.570531,75.1726904
21.340551,38.570555,75.1726904
21.340534,38.570573,75.0726904
21.34051,38.570596,75.0726904
21.340493,38.570614,75.0726904
21.340476,38.570632,75.0726904
21.340458,38.57065,75.0726904
21.340441,38.570668,75.0726904
21.340418,38.570692,74.9726904
21.340395,38.570716,74.9726904
21.340372,38.57074,74.9726904
21.340343,38.57077,74.9726904
21.34032,38.570794,74.9726904
21.340292,38.570825,74.8726904
21.340264,38.570854,74.8726904
21.340236,38.570885,74.8726904
21.340214,38.570909,74.8726904
21.340186,38.570939,74.7726904
21.340163,38.570963,74.7726904
21.340135,38.570993,74.7726904
21.340113,38.571017,74.7726904
21.340096,38.571036,74.7726904
21.340074,38.57106,74.7726904
21.340052,38.571085,74.7726904
21.340035,38.571103,74.6726904
21.340007,38.571134,74.6726904
21.339985,38.571159,74.6726904
21.339957,38.571189,74.6726904
21.339941,38.571208,74.6726904
21.339919,38.571232,74.6726904
21.339897,38.571257,74.6726904
21.339876,38.571282,74.6726904
21.339848,38.571312,74.6726904
21.339832,38.57133,74.6726904
21.339811,38.571354,74.6726904
21.339789,38.571379,74.5726904
21.339768,38.571404,74.5726904
21.339741,38.571434,74.5726904
21.339725,38.571453,74.5726904
21.339704,38.571477,74.6726904
21.339683,38.571502,74.5726904
21.339667,38.571521,74.5726904
21.339646,38.571545,74.6726904
21.339625,38.57157,74.6726904
21.339604,38.571595,74.5726904
21.339588,38.571614,74.5726904
21.339572,38.571633,74.5726904
21.339556,38.571652,74.5726904
21.339535,38.571676,74.5726904
21.339519,38.571695,74.5726904
21.339493,38.571726,74.5726904
21.339466,38.571758,74.5726904
21.339439,38.57179,74.5726904
21.339418,38.571815,74.4726904
21.339397,38.57184,74.4726904
21.33937,38.571871,74.4726904
21.33935,38.571896,74.4726904
21.339323,38.571927,74.4726904
21.339302,38.571952,74.4726904
21.339281,38.571977,74.4726904
21.339255,38.572008,74.4726904
21.339239,38.572027,74.4726904
21.339213,38.572058,74.4726904
21.339197,38.572076,74.4726904
21.33917,38.572108,74.4726904
21.339148,38.572133,74.4726904
21.339127,38.572158,74.4726904
21.339105,38.572183,74.4726904
21.33909,38.572202,74.4726904
21.339063,38.572233,74.4726904
21.339042,38.572258,74.4726904
21.339026,38.572277,74.4726904
21.339011,38.572295,74.4726904
21.338989,38.57232,74.4726904
21.338962,38.572352,74.4726904
21.338936,38.572383,74.4726904
21.338914,38.572408,74.4726904
21.338893,38.572433,74.3726904
21.338877,38.572452,74.3726904
21.338851,38.572483,74.3726904
21.33883,38.572508,74.3726904
21.338815,38.572526,74.3726904
21.338793,38.572551,74.3726904
21.338772,38.572576,74.3726904
21.338751,38.572601,74.3726904
21.33873,38.572625,74.3726904
21.338708,38.57265,74.3726904
21.338687,38.572675,74.3726904
21.338666,38.5727,74.2726904
21.338639,38.572731,74.2726904
21.338618,38.572756,74.2726904
21.338602,38.572774,74.2726904
21.338575,38.572805,74.2726904
21.338559,38.572824,74.2726904
21.338532,38.572855,74.2726904
21.338511,38.572881,74.2726904
21.338494,38.5729,74.2726904
21.338473,38.572924,74.2726904
21.338456,38.572943,74.2726904
21.33843,38.572973,74.1726904
21.338408,38.572998,74.1726904
21.338393,38.573017,74.1726904
21.338366,38.573047,74.1726904
21.33835,38.573066,74.1726904
21.338329,38.573091,74.1726904
21.338307,38.573115,74.1726904
21.338286,38.57314,74.1726904
21.33827,38.573159,74.1726904
21.338254,38.573177,74.0726904
21.338238,38.573196,74.0726904
21.338217,38.573221,74.0726904
21.338201,38.573239,74.0726904
21.338185,38.573258,74.0726904
21.338164,38.573283,74.0726904
21.338143,38.573308,74.0726904
21.338121,38.573332,74.0726904
21.338106,38.573351,74.0726904
21.338084,38.573376,74.0726904
21.338068,38.573394,74.0726904
21.338052,38.573413,74.0726904
21.33803,38.573438,74.0726904
21.338014,38.573456,74.0726904
21.337993,38.573481,74.0726904
21.337976,38.5735,74.0726904
21.337955,38.573525,74.0726904
21.337928,38.573556,74.0726904
21.337912,38.573575,74.0726904
21.337885,38.573606,73.9726904
21.337869,38.573625,74.0726904
21.337858,38.573637,74.0726904
21.337831,38.573668,73.9726904
21.337815,38.573686,73.9726904
21.337789,38.573717,73.9726904
21.337762,38.573748,73.9726904
21.337746,38.573767,73.9726904
21.337719,38.573798,73.9726904
21.337708,38.57381,73.9726904
21.337681,38.573841,73.9726904
21.33766,38.573866,73.9726904
21.337644,38.573885,73.9726904
21.337617,38.573916,73.9726904
21.337601,38.573934,73.8726904
21.337574,38.573966,73.8726904
21.337547,38.573997,73.8726904
21.337526,38.574022,73.8726904
21.337499,38.574053,73.8726904
21.337484,38.574071,73.8726904
21.337457,38.574102,73.8726904
21.337436,38.574127,73.8726904
21.337415,38.574152,73.8726904
21.337388,38.574182,73.8726904
21.337366,38.574207,73.8726904
21.337339,38.574238,73.8726904
21.337323,38.574257,73.8726904
21.337301,38.574282,73.8726904
21.33728,38.574306,73.7726904
21.337253,38.574337,73.7726904
21.337232,38.574362,73.7726904
21.337221,38.574375,73.7726904
21.337205,38.574393,73.8726904
21.337184,38.574418,73.7726904
21.337168,38.574436,73.8726904
21.337146,38.574461,73.8726904
21.33712,38.574492,73.8726904
21.337109,38.574505,73.8726904
21.337082,38.574536,73.8726904
21.337066,38.574555,73.8726904
21.337044,38.574579,73.8726904
21.337018,38.574611,73.8726904
21.336996,38.574635,73.8726904
21.336975,38.574661,73.8726904
21.336959,38.574679,73.8726904
21.336932,38.574711,73.8726904
21.336906,38.574742,73.8726904
21.33689,38.57476,73.8726904
21.336864,38.574791,73.8726904
21.336848,38.57481,73.9726904
21.336821,38.574841,73.8726904
21.3368,38.574866,73.8726904
21.336789,38.574879,73.8726904
21.336761,38.57491,73.8726904
21.336745,38.574929,73.8726904
21.336724,38.574954,73.8726904
21.336702,38.574979,73.8726904
21.336687,38.574997,73.8726904
21.336666,38.575022,73.8726904
21.336639,38.575053,73.8726904
21.336618,38.575078,73.9726904
21.336592,38.575109,73.9726904
21.33657,38.575134,73.9726904
21.336549,38.575159,73.9726904
21.336533,38.575177,73.9726904
21.336511,38.575202,73.9726904
21.33649,38.575226,73.9726904
21.336469,38.575251,73.9726904
21.336453,38.575269,73.9726904
21.336432,38.575294,73.9726904
21.336416,38.575313,73.9726904
21.336395,38.575338,73.9726904
21.336373,38.575363,74.0726904
21.336347,38.575394,74.0726904
21.336331,38.575413,74.0726904
21.336314,38.575432,74.0726904
21.336293,38.575457,74.0726904
21.336272,38.575482,74.0726904
21.336261,38.575495,74.0726904
21.336241,38.575519,74.0726904
21.336219,38.575544,74.0726904
21.336198,38.575569,74.0726904
21.336182,38.575587,74.1726904
21.336161,38.575612,74.1726904
21.33615,38.575625,74.1726904
21.336123,38.575656,74.1726904
21.336102,38.575681,74.1726904
21.336086,38.575699,74.1726904
21.336059,38.57573,74.1726904
21.336049,38.575743,74.1726904
21.336028,38.575768,74.1726904
21.336012,38.575787,74.2726904
21.335996,38.575805,74.2726904
21.335974,38.575831,74.2726904
21.335947,38.575862,74.2726904
21.335925,38.575888,74.2726904
21.335898,38.575919,74.2726904
21.335882,38.575937,74.1726904
21.33586,38.575962,74.1726904
21.335839,38.575987,74.2726904
21.335823,38.576005,74.2726904
21.335792,38.576043,74.2726904
21.335781,38.576055,74.2726904
21.335754,38.576086,74.2726904
21.335738,38.576105,74.2726904
21.335717,38.57613,74.2726904
21.335695,38.576155,74.2726904
21.33568,38.576174,74.2726904
21.335659,38.576199,74.2726904
21.335643,38.576217,74.2726904
21.335627,38.576236,74.2726904
21.335601,38.576267,74.2726904
21.335574,38.576298,74.2726904
21.335559,38.576316,74.2726904
21.335533,38.576347,74.2726904
21.335512,38.576372,74.2726904
21.335496,38.57639,74.2726904
21.335474,38.576415,74.2726904
21.335458,38.576434,74.2726904
21.335431,38.576465,74.2726904
21.33541,38.57649,74.2726904
21.335389,38.576514,74.2726904
21.335373,38.576533,74.2726904
21.335352,38.576558,74.3726904
21.335326,38.576588,74.3726904
21.335299,38.576619,74.3726904
21.335272,38.57665,74.3726904
21.335256,38.576669,74.3726904
21.335224,38.576706,74.3726904
21.335203,38.576732,74.3726904
21.335181,38.576756,74.3726904
21.335154,38.576788,74.3726904
21.335133,38.576813,74.3726904
21.335117,38.576831,74.3726904
21.335096,38.576856,74.3726904
21.33508,38.576875,74.3726904
21.335059,38.576899,74.3726904
21.335037,38.576924,74.3726904
21.335015,38.57695,74.2726904
21.334999,38.576968,74.2726904
21.334978,38.576993,74.2726904
21.334951,38.577024,74.2726904
21.334935,38.577043,74.2726904
21.334908,38.577074,74.2726904
21.334882,38.577105,74.1726904
21.33486,38.57713,74.1726904
21.334834,38.57716,74.1726904
21.334818,38.577179,74.1726904
21.334797,38.577203,74.1726904
21.334776,38.577228,74.1726904
21.334765,38.577241,74.1726904
21.334739,38.577272,74.1726904
21.334723,38.57729,74.1726904
21.334696,38.577321,74.1726904
21.334675,38.577346,74.1726904
21.334659,38.577364,74.1726904
21.334632,38.577395,74.1726904
21.334616,38.577414,74.1726904
21.334599,38.577433,74.0726904
21.334578,38.577458,74.0726904
21.334562,38.577476,74.0726904
21.334541,38.577501,74.0726904
21.334514,38.577532,73.9726904
21.334497,38.577551,73.9726904
21.334476,38.577576,73.9726904
21.33446,38.577595,73.8726904
21.334439,38.577619,73.8726904
21.334417,38.577644,73.8726904
21.334396,38.577669,73.8726904
21.334369,38.5777,73.8726904
21.334347,38.577725,73.8726904
21.33432,38.577756,73.8726904
21.334299,38.577781,73.7726904
21.334277,38.577806,73.7726904
21.33425,38.577838,73.6726904
21.334233,38.577857,73.6726904
21.334211,38.577882,73.5726904
21.33419,38.577907,73.5726904
21.334174,38.577926,73.5726904
21.334157,38.577944,73.5726904
21.334131,38.577975,73.4726904
21.33412,38.577988,73.4726904
21.334094,38.578018,73.4726904
21.334078,38.578037,73.4726904
21.334052,38.578068,73.3726904
21.334031,38.578092,73.3726904
21.33402,38.578105,73.3726904
21.334,38.578129,73.3726904
21.333973,38.57816,73.3726904
21.333952,38.578185,73.3726904
21.33393,38.57821,73.2726904
21.333908,38.578235,73.2726904
21.333892,38.578253,73.2726904
21.333866,38.578284,73.2726904
21.333844,38.578309,73.2726904
21.333823,38.578333,73.1726904
21.333802,38.578358,73.1726904
21.33378,38.578382,73.1726904
21.333759,38.578407,73.0726904
21.333743,38.578426,73.0726904
21.333722,38.57845,73.0726904
21.333706,38.578469,73.0726904
21.333695,38.578481,73.0726904
21.333668,38.578512,73.0726904
21.333647,38.578537,73.0726904
21.333631,38.578555,73.0726904
21.333615,38.578574,73.0726904
21.333593,38.578599,73.0726904
21.333572,38.578624,73.0726904
21.333556,38.578643,73.0726904
21.333545,38.578656,73.0726904
21.333514,38.578693,72.9726904
21.333492,38.578718,73.0726904
21.333471,38.578743,73.0726904
21.333449,38.578768,73.0726904
21.333433,38.578786,73.0726904
21.333417,38.578805,72.9726904
21.333395,38.57883,72.9726904
21.333385,38.578842,72.9726904
21.333369,38.578861,72.9726904
21.333342,38.578892,73.0726904
21.33332,38.578917,73.0726904
21.333293,38.578948,73.0726904
21.333272,38.578973,73.0726904
21.333245,38.579004,73.0726904
21.333223,38.579029,73.0726904
21.333202,38.579054,73.0726904
21.333174,38.579085,73.0726904
21.333164,38.579097,73.0726904
21.333148,38.579116,73.0726904
21.333121,38.579147,73.0726904
21.333105,38.579165,73.0726904
21.333084,38.57919,73.0726904
21.333068,38.579209,73.0726904
21.333047,38.579233,73.1726904
21.333026,38.579258,73.1726904
21.33301,38.579276,73.1726904
21.332983,38.579307,73.2726904
21.332956,38.579338,73.2726904
21.332935,38.579362,73.2726904
21.332907,38.579393,73.2726904
21.332885,38.579418,73.3726904
21.332864,38.579442,73.3726904
21.332842,38.579467,73.3726904
21.332815,38.579498,73.3726904
21.332793,38.579522,73.4726904
21.332777,38.579541,73.4726904
21.332756,38.579565,73.4726904
21.332735,38.57959,73.4726904
21.332719,38.579608,73.4726904
21.332693,38.579639,73.4726904
21.332672,38.579663,73.4726904
21.332646,38.579694,73.5726904
21.332624,38.579719,73.5726904
21.332603,38.579744,73.5726904
21.332581,38.579769,73.5726904
21.332565,38.579787,73.5726904
21.332538,38.579819,73.5726904
21.332522,38.579837,73.5726904
21.332495,38.579868,73.6726904
21.332474,38.579893,73.6726904
21.332447,38.579924,73.6726904
21.332425,38.579949,73.6726904
21.332409,38.579968,73.6726904
21.332388,38.579993,73.7726904
21.332372,38.580011,73.7726904
21.332356,38.58003,73.7726904
21.332334,38.580055,73.7726904
21.332313,38.580079,73.8726904
21.332286,38.58011,73.8726904
21.332265,38.580135,73.8726904
21.332249,38.580153,73.8726904
21.332228,38.580178,73.8726904
21.332206,38.580202,73.9726904
21.332185,38.580227,73.9726904
21.332158,38.580258,73.9726904
21.332142,38.580277,73.9726904
21.332121,38.580302,73.9726904
21.3321,38.580327,73.9726904
21.332078,38.580352,74.0726904
21.332051,38.580383,74.0726904
21.332035,38.580401,74.0726904
21.332008,38.580432,74.0726904
21.331982,38.580464,74.1726904
21.33196,38.580489,74.1726904
21.331938,38.580514,74.1726904
21.331917,38.580539,74.1726904
21.33189,38.58057,74.2726904
21.331862,38.580601,74.2726904
21.331835,38.580631,74.2726904
21.331808,38.580663,74.2726904
21.331782,38.580693,74.3726904
21.331764,38.580715,74.3726904
21.331749,38.580734,74.2726904
21.331737,38.580748,74.2726904
21.33173,38.580758,74.2726904
21.331727,38.580764,74.3726904
21.331727,38.58077,74.3726904
21.33173,38.580775,74.2726904
21.331735,38.580777,74.2726904
21.331741,38.580777,74.2726904
21.331754,38.580774,74.2726904
21.331764,38.58077,74.2726904
21.331782,38.580762,74.1726904
21.331803,38.580752,74.1726904
21.331812,38.580748,74.1726904
21.331834,38.580738,74.1726904
21.331846,38.580733,74.1726904
21.33186,38.580728,74.1726904
21.331866,38.580725,74.1726904
21.33187,38.580724,74.1726904
21.331873,38.580723,74.1726904
21.331873,38.580723,74.1726904
21.331874,38.580723,74.1726904
21.331873,38.580723,74.1726904
21.331873,38.580723,74.1726904
21.331873,38.580723,74.1726904
21.331873,38.580723,74.1726904
21.331873,38.580724,74.1726904
21.331872,38.580724,74.1726904
21.331872,38.580724,74.1726904
21.331872,38.580724,74.1726904
21.331871,38.580724,74.1726904
21.331871,38.580724,74.1726904
21.33187,38.580724,74.1726904
21.33187,38.580724,74.1726904
21.33187,38.580724,74.2726904
21.33187,38.580724,74.1726904
21.33187,38.580724,74.2726904
21.331869,38.580725,74.2726904
21.331869,38.580725,74.2726904
21.331869,38.580725,74.2726904
21.331869,38.580725,74.2726904
21.331869,38.580725,74.2726904
21.331869,38.580725,74.2726904
21.331869,38.580725,74.2726904
21.331868,38.580725,74.1726904
21.331868,38.580725,74.1726904
21.331868,38.580726,74.1726904
21.331868,38.580726,74.1726904
21.331868,38.580726,74.1726904
21.331868,38.580726,74.2726904
21.331868,38.580726,74.2726904
21.331868,38.580727,74.2726904
21.331868,38.580727,74.2726904
21.331868,38.580727,74.2726904
21.331868,38.580727,74.2726904
21.331868,38.580727,74.2726904
21.331868,38.580727,74.2726904
21.331868,38.580727,74.2726904
21.331868,38.580727,74.2726904
21.331868,38.580727,74.1726904
21.331868,38.580727,74.1726904
21.331869,38.580727,74.1726904
21.331869,38.580727,74.1726904
21.331869,38.580726,74.1726904
21.331869,38.580726,74.1726904
21.331869,38.580726,74.1726904
21.331869,38.580726,74.1726904
21.33187,38.580726,74.1726904
21.33187,38.580726,74.1726904
21.33187,38.580726,74.1726904
21.33187,38.580726,74.1726904
21.33187,38.580726,74.1726904
21.33187,38.580726,74.1726904
21.33187,38.580726,74.1726904
21.33187,38.580726,74.1726904
21.33187,38.580726,74.1726904
21.33187,38.580726,74.1726904
21.33187,38.580726,74.1726904
21.33187,38.580726,74.1726904
21.33187,38.580726,74.1726904
21.33187,38.580726,74.1726904
21.33187,38.580726,74.1726904
21.33187,38.580726,74.1726904
21.33187,38.580725,74.1726904
21.33187,38.580725,74.1726904
21.331871,38.580725,74.1726904
21.331871,38.580725,74.1726904
21.331871,38.580725,74.1726904
21.331871,38.580725,74.1726904
21.331871,38.580724,74.1726904
21.331871,38.580724,74.0726904
21.331871,38.580724,74.1726904
21.331871,38.580724,74.1726904
21.331871,38.580724,74.0726904
21.331871,38.580724,74.0726904
21.331871,38.580723,74.0726904
21.331871,38.580723,74.1726904
21.331871,38.580723,74.1726904
21.331871,38.580723,74.1726904
21.331871,38.580723,74.1726904
21.331871,38.580724,74.1726904
21.331871,38.580724,74.1726904
21.331871,38.580724,74.1726904
21.331871,38.580724,74.1726904
21.331871,38.580724,74.0726904
21.331871,38.580724,74.1726904
21.331871,38.580724,74.0726904
21.331871,38.580724,74.1726904
21.331871,38.580724,74.1726904
21.331871,38.580724,74.1726904
21.331871,38.580724,74.1726904
21.331871,38.580725,74.1726904
21.331871,38.580725,74.1726904
21.33187,38.580725,74.1726904
21.33187,38.580725,74.1726904
21.33187,38.580725,74.1726904
21.33187,38.580725,74.1726904
21.33187,38.580725,74.1726904
21.33187,38.580725,74.1726904
21.331869,38.580725,74.1726904
21.331869,38.580724,74.1726904
21.33187,38.580724,74.1726904
21.33187,38.580724,74.1726904
21.33187,38.580724,74.1726904
21.33187,38.580724,74.1726904
21.33187,38.580724,74.1726904
21.331871,38.580724,74.1726904
21.331871,38.580725,74.1726904
21.331871,38.580725,74.1726904
21.331871,38.580725,74.1726904
21.331872,38.580725,74.1726904
21.331872,38.580725,74.1726904
21.331871,38.580725,74.1726904
21.331866,38.580725,74.0726904
21.331854,38.580728,74.1726904
21.331839,38.580733,74.1726904
21.331822,38.580738,74.0726904
21.331803,38.580742,74.0726904
21.331787,38.580745,73.9726904
21.331765,38.580747,73.8726904
21.33174,38.58075,73.8726904
21.33173,38.580751,73.8726904
21.331711,38.580752,73.8726904
21.331695,38.580753,73.7726904
21.331691,38.580753,73.7726904
21.331687,38.580754,73.7726904
21.331685,38.580754,73.6726904
21.331684,38.580755,73.1726904
21.331683,38.580755,72.6726904
21.331682,38.580755,72.5726904
21.331682,38.580755,72.1726904
21.331682,38.580755,71.9726904
21.331681,38.580755,71.8726904
21.331682,38.580755,71.4726904
21.331682,38.580754,71.1726904
21.331682,38.580755,70.6726904
21.331682,38.580754,70.0726904
21.331682,38.580754,69.6726904
21.331682,38.580754,69.2726904
21.331682,38.580754,68.6726904
21.331682,38.580754,68.0726904
21.331683,38.580754,67.3726904
21.331683,38.580754,66.8726904
21.331683,38.580754,66.2726904
21.331682,38.580754,65.2726904
21.331682,38.580754,64.1726904
21.331682,38.580754,63.2726904
21.331682,38.580755,61.7726904
21.331682,38.580755,60.7726904
21.331682,38.580755,59.7726904
21.331681,38.580756,58.7726904
21.331681,38.580757,57.7726904
21.331681,38.580757,56.4726904
21.331681,38.580756,55.6726904
21.331681,38.580755,54.4726904
21.331681,38.580755,53.2726904
21.331681,38.580755,52.4726904
21.331681,38.580756,50.9726904
21.33168,38.580756,50.0726904
21.33168,38.580756,48.9726904
21.331681,38.580757,48.0726904
21.331681,38.580757,46.8726904
21.331681,38.580757,45.6726904
21.331681,38.580756,44.5726904
21.331681,38.580756,43.4726904
21.331682,38.580756,42.2726904
21.331683,38.580756,41.0726904
21.331681,38.580756,39.9726904
21.331676,38.580758,38.7726904
21.331668,38.58076,37.4726904
21.331658,38.580761,36.4726904
21.33165,38.580762,35.7726904
21.331639,38.580764,34.9726904
21.331627,38.580766,34.5726904
21.331618,38.580768,34.3726904
21.331609,38.580769,34.0726904
21.331595,38.580772,33.6726904
21.331579,38.580775,33.5726904
21.331564,38.580779,33.4726904
21.331543,38.580786,33.4726904
21.331521,38.580793,33.1726904
21.331504,38.580798,32.5726904
21.331483,38.580805,32.0726904
21.331474,38.580808,31.8726904
21.331455,38.580815,31.7726904
21.331432,38.580824,31.3726904
21.331419,38.580829,31.0726904
21.331396,38.580837,30.7726904
21.331384,38.580842,30.5726904
21.331375,38.580845,30.4726904
21.331354,38.580852,30.0726904
21.331337,38.580857,29.8726904
21.331325,38.580861,29.6726904
21.331308,38.580865,29.3726904
21.331296,38.580868,28.9726904
21.33128,38.580871,28.0726904
21.331261,38.580873,26.9726904
21.331245,38.580874,26.1726904
21.331221,38.580874,25.3726904
21.331204,38.580873,24.8726904
21.331175,38.58087,23.6726904
21.331157,38.580868,22.8726904
21.331134,38.580865,22.2726904
21.331117,38.580863,22.1726904
21.331101,38.580863,22.0726904
21.331084,38.580864,21.9726904
21.331064,38.580867,21.6726904
21.331051,38.58087,21.5726904
21.331034,38.580875,21.4726904
21.331015,38.580882,21.3726904
21.331007,38.580886,21.1726904
21.330994,38.580892,20.6726904
21.330985,38.580897,20.5726904
21.330977,38.580902,20.4726904
21.330969,38.580907,20.3726904
21.330958,38.580914,20.1726904
21.330951,38.580919,20.0726904
21.330949,38.580921,19.9726904
21.330948,38.580922,19.8726904
21.330948,38.580922,19.8726904
21.330949,38.580922,19.9726904
21.330949,38.580922,19.9726904
21.33095,38.580922,19.8726904
21.33095,38.580922,19.8726904
21.33095,38.580922,19.8726904
21.33095,38.580922,19.8726904
21.33095,38.580922,19.8726904
21.330949,38.58092,19.8726904
21.330944,38.580915,19.8726904
21.33094,38.580913,19.8726904
21.330933,38.580906,19.8726904
21.330923,38.580898,19.8726904
21.330918,38.580894,19.8726904
21.330907,38.580884,19.8726904
21.330898,38.580876,19.8726904
21.330891,38.580869,19.8726904
21.330881,38.580861,19.8726904
21.330868,38.580853,19.9726904
21.330859,38.580846,19.9726904
21.330854,38.580842,19.9726904
21.330848,38.580838,19.9726904
21.330844,38.580835,19.9726904
21.330841,38.580833,19.9726904
21.33084,38.580832,19.9726904
21.33084,38.580832,19.8726904
21.33084,38.580831,19.8726904
21.33084,38.580831,19.8726904
21.33084,38.580832,19.8726904
21.330842,38.580835,19.8726904
21.330846,38.580843,19.8726904
21.330852,38.580854,19.9726904
21.330856,38.580864,19.9726904
21.330864,38.580879,19.8726904
21.330867,38.580887,19.8726904
21.330868,38.580891,19.8726904
21.330868,38.580892,19.8726904
21.330868,38.580891,19.8726904
21.330869,38.580891,19.8726904
21.33087,38.580891,19.8726904
21.33087,38.580891,19.8726904
21.33087,38.580891,19.8726904
21.33087,38.580891,19.8726904
21.33087,38.580891,19.8726904
21.33087,38.580891,19.8726904
21.33087,38.580891,19.8726904
21.33087,38.580891,19.8726904
21.33087,38.580891,19.8726904
21.33087,38.580891,19.8726904
21.33087,38.580891,19.8726904
21.33087,38.580891,19.8726904
21.33087,38.580891,19.8726904
21.33087,38.580891,19.8726904
21.330869,38.580891,19.8726904
21.330869,38.580891,19.8726904
21.330869,38.580891,19.8726904
21.330869,38.580891,19.8726904
21.330869,38.580891,19.8726904
21.330869,38.580891,19.8726904
21.330869,38.580891,19.8726904
21.330869,38.580891,19.8726904
21.330869,38.580891,19.8726904
21.330869,38.580891,19.8726904
21.330869,38.580891,19.8726904
21.330869,38.580891,19.8726904
21.330869,38.58089,19.8726904
21.330869,38.58089,19.8726904
21.330869,38.58089,19.8726904
21.330869,38.58089,19.8726904
21.330869,38.58089,19.8726904
21.330869,38.58089,19.8726904
21.330869,38.58089,19.8726904
21.33087,38.58089,19.8726904
21.330869,38.58089,19.8726904
21.330869,38.58089,19.8726904
21.330869,38.58089,19.8726904
21.330869,38.580889,19.8726904
21.330869,38.580889,19.8726904
21.330869,38.580889,19.8726904
21.330869,38.580889,19.8726904
21.330869,38.580889,19.8726904
21.330869,38.580889,19.8726904
21.330869,38.580889,19.8726904
21.330869,38.580889,19.8726904
21.330868,38.580889,19.8726904
21.330868,38.580889,19.8726904
21.330868,38.580889,19.8726904
21.330869,38.580888,19.8726904
21.330868,38.580888,19.8726904
21.330868,38.580888,19.8726904
21.330868,38.580888,19.8726904
21.330868,38.580888,19.8726904
21.330868,38.580888,19.8726904
21.330866,38.580888,19.8726904
21.33086,38.580889,19.8726904
21.330857,38.580889,19.8726904
21.330858,38.58089,19.8726904
21.330863,38.580893,19.8726904
21.330872,38.580898,19.9726904
21.330885,38.580903,19.9726904
21.330896,38.580907,19.8726904
21.330906,38.58091,19.8726904
21.330915,38.58091,19.8726904
21.330922,38.580909,19.8726904
21.330931,38.580905,19.8726904
21.330938,38.580902,19.8726904
21.330945,38.580899,19.9726904
21.330953,38.580896,19.9726904
21.330957,38.580894,19.9726904
21.330958,38.580893,19.9726904
21.330958,38.580892,19.9726904
21.330958,38.580891,19.9726904
21.330959,38.58089,19.8726904
21.330959,38.580891,19.8726904
21.330959,38.580891,19.8726904
21.330958,38.580891,19.8726904
21.330958,38.580891,19.8726904
21.330958,38.580891,19.7726904
21.330958,38.580891,19.6726904
21.330958,38.580891,19.4726904
21.330958,38.580891,19.0726904
21.330958,38.580891,18.9726904
21.330958,38.580891,18.9726904
21.330958,38.580891,18.8726904
21.330958,38.580891,18.9726904
21.330958,38.580891,18.9726904
21.330959,38.580891,18.9726904
21.330959,38.580891,18.9726904
21.330959,38.580891,18.9726904
21.330959,38.580891,18.9726904
21.330959,38.580891,18.9726904
21.330959,38.580891,18.9726904
21.330959,38.580891,18.8726904
21.330959,38.580891,18.8726904
21.330959,38.580891,18.7726904
21.330959,38.580891,18.7726904
21.330959,38.580891,18.7726904
21.330959,38.580891,18.7726904
21.330959,38.580891,18.7726904
21.330959,38.580891,18.7726904
21.330959,38.580891,18.7726904
21.330959,38.580892,18.7726904
21.330959,38.580892,18.7726904
21.330959,38.580892,18.7726904
21.330959,38.580892,18.7726904
21.330959,38.580892,18.7726904
21.330959,38.580892,18.7726904
21.330959,38.580892,18.7726904
21.330959,38.580892,18.7726904
21.330959,38.580892,18.6726904
21.330959,38.580892,18.4726904
21.330958,38.580892,18.3726904
21.330958,38.580892,18.3726904
21.330958,38.580892,18.3726904
21.330958,38.580892,18.2726904
21.330957,38.580892,18.0726904
21.330948,38.580896,18.0726904
21.330939,38.580899,18.1726904
21.330927,38.580903,18.1726904
21.330921,38.580905,18.0726904
21.330918,38.580906,18.0726904
21.330915,38.580906,18.0726904
21.330913,38.580907,18.0726904
21.330912,38.580908,18.0726904
21.330912,38.580909,18.0726904
21.330911,38.580909,18.0726904
21.33091,38.58091,18.0726904
21.330908,38.580911,18.0726904
21.330906,38.580912,18.0726904
21.330902,38.580913,18.0726904
21.3309,38.580913,18.0726904
21.330896,38.580915,18.0726904
21.330894,38.580916,18.0726904
21.330892,38.580916,18.0726904
21.330888,38.580917,18.0726904
21.330887,38.580918,18.0726904
21.330887,38.580917,18.1726904
21.330888,38.580917,18.1726904
21.330888,38.580917,18.0726904
21.330888,38.580917,18.0726904
21.330889,38.580918,17.9726904
21.330889,38.580917,17.9726904
21.330888,38.580917,17.9726904
21.330888,38.580917,17.9726904
21.330888,38.580917,17.9726904
21.330888,38.580917,17.9726904
21.330888,38.580917,17.8726904
21.330888,38.580917,17.8726904
21.330888,38.580917,17.8726904
21.330888,38.580917,17.8726904
21.330888,38.580917,17.8726904
21.330888,38.580917,17.8726904
21.330888,38.580917,17.8726904
21.330888,38.580918,17.8726904
21.330887,38.580918,17.8726904
21.330887,38.580918,17.8726904
21.330887,38.580918,17.8726904
21.330887,38.580918,17.8726904
21.330887,38.580918,17.8726904
21.330887,38.580918,17.8726904
21.330887,38.580918,17.8726904
21.330887,38.580918,17.8726904
21.330886,38.580918,17.8726904
21.330886,38.580919,17.8726904
21.330886,38.580919,17.8726904
21.330886,38.580919,17.8726904
21.330886,38.580919,17.8726904
21.330886,38.580919,17.8726904
21.330886,38.580919,17.8726904
21.330887,38.580918,17.8726904
21.330886,38.580919,17.8726904
21.330886,38.580919,17.8726904
21.330886,38.580919,17.8726904
21.330886,38.580919,17.8726904
21.330886,38.580918,17.8726904
21.330886,38.580918,17.8726904
21.330886,38.580918,17.8726904
21.330886,38.580918,17.8726904
21.330886,38.580919,17.8726904
21.330886,38.580918,17.8726904
21.330886,38.580918,17.8726904
21.330886,38.580918,17.8726904
21.330886,38.580918,17.8726904
21.330886,38.580918,17.8726904
21.330886,38.580918,17.8726904
21.330886,38.580918,17.8726904
21.330886,38.580918,17.8726904
21.330886,38.580918,17.8726904
21.330886,38.580918,17.8726904
21.330886,38.580918,17.8726904
21.330886,38.580918,17.8726904
21.330887,38.580918,17.8726904
21.330887,38.580918,17.8726904
21.330886,38.580918,17.8726904
21.330886,38.580917,17.8726904
21.330886,38.580917,17.8726904
21.330886,38.580917,17.8726904
21.330886,38.580918,17.8726904
21.330886,38.580918,17.8726904
21.330886,38.580917,17.8726904
21.330886,38.580917,17.8726904
21.330887,38.580917,17.8726904
21.330887,38.580917,17.8726904
21.330886,38.580917,17.8726904
21.330887,38.580917,17.8726904
21.330887,38.580917,17.8726904
21.330887,38.580917,17.8726904
21.330887,38.580917,17.8726904
21.330887,38.580917,17.8726904
21.330887,38.580917,17.8726904
21.330887,38.580917,17.8726904
21.330886,38.580917,17.8726904
21.330886,38.580917,17.8726904
21.330886,38.580917,17.8726904
21.330886,38.580917,17.8726904
21.330886,38.580917,17.8726904
21.330886,38.580917,17.8726904
21.330886,38.580917,17.8726904
21.330886,38.580917,17.8726904
21.330886,38.580917,17.8726904
21.330886,38.580917,17.8726904
21.330886,38.580917,17.9726904
21.330886,38.580917,18.1726904
21.330886,38.580917,18.1726904
21.330886,38.580917,18.0726904
21.330887,38.580917,18.0726904
21.330887,38.580918,18.0726904
21.330887,38.580918,18.1726904
21.330887,38.580918,18.1726904
21.330887,38.580918,18.1726904
21.330887,38.580918,18.1726904
21.330887,38.580918,18.1726904
21.330887,38.580918,18.1726904
21.330887,38.580918,18.1726904
21.330887,38.580918,18.1726904
21.330887,38.580918,18.1726904
21.330887,38.580918,18.1726904
21.330887,38.580918,18.1726904
21.330887,38.580918,18.1726904
21.330887,38.580918,18.1726904
21.330887,38.580918,18.1726904
21.330887,38.580918,18.1726904
21.330888,38.580918,18.1726904
21.330888,38.580918,18.1726904
21.330888,38.580918,18.1726904
21.330887,38.580918,18.1726904
21.330885,38.580919,18.1726904
21.330883,38.58092,18.1726904
21.33088,38.580921,18.1726904
21.330877,38.580923,18.1726904
21.33087,38.580925,18.1726904
21.330859,38.58093,18.1726904
21.330851,38.580934,18.1726904
21.330844,38.580939,18.1726904
21.330835,38.580945,18.0726904
21.330833,38.580947,18.0726904
21.330831,38.580949,18.1726904
21.33083,38.58095,18.1726904
21.33083,38.580952,18.1726904
21.330832,38.580954,18.1726904
21.330835,38.580957,18.1726904
21.330839,38.580959,18.1726904
21.330844,38.58096,18.1726904
21.330848,38.580962,18.0726904
21.330848,38.580962,18.0726904
21.330849,38.580963,18.0726904
21.330852,38.580963,18.0726904
21.330855,38.580964,18.0726904
21.330857,38.580964,18.0726904
21.33086,38.580965,18.0726904
21.330861,38.580966,18.0726904
21.330861,38.580965,18.0726904
21.33086,38.580965,18.0726904
21.33086,38.580965,18.0726904
21.33086,38.580966,18.0726904
21.330859,38.580967,18.1726904
21.330859,38.580968,18.1726904
21.330859,38.580969,18.1726904
21.330858,38.580969,18.1726904
21.330857,38.580968,18.1726904
21.330856,38.580968,18.1726904
21.330855,38.580968,18.1726904
21.330855,38.580968,18.1726904
21.330855,38.580968,17.9726904
21.330854,38.580968,17.8726904
21.330854,38.580968,17.7726904
21.330855,38.58097,17.6726904
21.330855,38.580971,17.6726904
21.330855,38.580971,17.7726904
21.330854,38.580971,17.6726904
21.330853,38.58097,17.6726904
21.330853,38.58097,17.6726904
21.330853,38.58097,17.6726904
21.330853,38.58097,17.5726904
21.330853,38.580969,17.4726904
21.330853,38.580969,17.4726904
21.330853,38.580968,17.4726904
21.330853,38.580969,17.4726904
21.330853,38.58097,17.4726904
21.330853,38.580971,17.4726904
21.330853,38.580971,17.4726904
21.330853,38.58097,17.4726904
21.330853,38.58097,17.3726904
21.330853,38.58097,17.3726904
21.330853,38.580971,17.3726904
21.330853,38.580971,17.3726904
21.330853,38.58097,17.3726904
21.330854,38.58097,17.3726904
21.330854,38.58097,17.3726904
21.330855,38.58097,17.3726904
21.330855,38.58097,17.3726904
21.330854,38.58097,17.3726904
21.330854,38.58097,17.3726904
21.330854,38.58097,17.3726904
21.330854,38.58097,17.3726904
21.330853,38.580971,17.1726904
21.330854,38.580971,17.0726904
21.330855,38.580971,16.9726904
21.330855,38.58097,16.8726904
21.330855,38.58097,16.7726904
21.330855,38.58097,16.6726904
21.330855,38.58097,16.6726904
21.330854,38.58097,16.6726904
21.330854,38.58097,14.1726904
21.330854,38.58097,14.1726904
                </coordinates>
            </LineString>
        </Placemark>
    </Document>
</kml>
